fl_tb.vcd
$version Generated by VerilatedVcd $end
$timescale 1ps $end
 $scope module mem_pkg $end
  $var wire 32 4 BLOCK_BYTES [31:0] $end
  $var wire 32 5 NUM_BLOCKS [31:0] $end
  $var wire 32 6 DATA_WIDTH [31:0] $end
  $var wire 32 7 ADDR_W [31:0] $end
  $var wire 32 8 FOOTER_BYTES [31:0] $end
  $var wire 32 9 PAYLOAD_BYTES [31:0] $end
  $var wire 32 : BLOCK_BITS [31:0] $end
 $upscope $end
 $scope module tb_fl $end
  $var wire 32 3 NBITS [31:0] $end
  $var wire 1 2 clk $end
  $var wire 1 # rst_n $end
  $var wire 1 $ alloc_req_i $end
  $var wire 1 , alloc_gnt_o $end
  $var wire 12 - alloc_block_idx_o [11:0] $end
  $var wire 1 % free_req_i $end
  $var wire 12 & free_block_idx_i [11:0] $end
  $var wire 12 ' idx [11:0] $end
  $var wire 12 ( freed_idx [11:0] $end
  $var wire 12 ) bypass_free_idx [11:0] $end
  $var wire 12 * bypass_alloc_idx [11:0] $end
  $scope module dut $end
   $var wire 1 2 clk $end
   $var wire 1 # rst_n $end
   $var wire 1 $ alloc_req_i $end
   $var wire 1 , alloc_gnt_o $end
   $var wire 12 - alloc_block_idx_o [11:0] $end
   $var wire 1 % free_req_i $end
   $var wire 12 & free_block_idx_i [11:0] $end
   $var wire 13 . sp [12:0] $end
   $var wire 1 / empty $end
   $var wire 1 0 full $end
   $scope module unnamedblk1 $end
    $var wire 32 1 i [31:0] $end
   $upscope $end
  $upscope $end
  $scope module unnamedblk1 $end
   $var wire 32 + i [31:0] $end
  $upscope $end
 $upscope $end
$enddefinitions $end


#0
0#
0$
0%
b000000000000 &
b000000000000 '
b000000000000 (
b000000000000 )
b000000000000 *
b00000000000000000000000000000000 +
0,
b000000000000 -
b0000000000000 .
1/
00
b00000000000000000000000000000000 1
02
b00000000000000000000000000001100 3
b00000000000000000000000001000000 4
b00000000000000000001000000000000 5
b00000000000000000000000000001000 6
b00000000000000000000000000001100 7
b00000000000000000000000000000010 8
b00000000000000000000000000111110 9
b00000000000000000000001000000000 :
#5
b1000000000000 .
0/
10
b00000000000000000001000000000001 1
12
#10
02
#15
12
#20
02
#25
12
#30
02
#35
12
#40
02
#45
1#
12
#50
02
#55
1$
1,
b0111111111111 .
00
12
#60
02
#65
0$
0,
12
#70
02
#75
1$
b00000000000000000000000000000001 +
1,
b111111111111 -
b0111111111110 .
12
#80
02
#85
0$
0,
12
#90
02
#95
1$
b111111111111 '
b00000000000000000000000000000010 +
1,
b111111111110 -
b0111111111101 .
12
#100
02
#105
0$
0,
12
#110
02
#115
1$
b111111111110 '
b00000000000000000000000000000011 +
1,
b111111111101 -
b0111111111100 .
12
#120
02
#125
0$
0,
12
#130
02
#135
1$
b111111111101 '
b00000000000000000000000000000100 +
1,
b111111111100 -
b0111111111011 .
12
#140
02
#145
0$
0,
12
#150
02
#155
1$
b111111111100 '
b00000000000000000000000000000101 +
1,
b111111111011 -
b0111111111010 .
12
#160
02
#165
0$
0,
12
#170
02
#175
1$
b111111111011 '
b00000000000000000000000000000110 +
1,
b111111111010 -
b0111111111001 .
12
#180
02
#185
0$
0,
12
#190
02
#195
1$
b111111111010 '
b00000000000000000000000000000111 +
1,
b111111111001 -
b0111111111000 .
12
#200
02
#205
0$
0,
12
#210
02
#215
1$
b111111111001 '
b00000000000000000000000000001000 +
1,
b111111111000 -
b0111111110111 .
12
#220
02
#225
0$
0,
12
#230
02
#235
1$
b111111111000 '
b00000000000000000000000000001001 +
1,
b111111110111 -
b0111111110110 .
12
#240
02
#245
0$
0,
12
#250
02
#255
1$
b111111110111 '
b00000000000000000000000000001010 +
1,
b111111110110 -
b0111111110101 .
12
#260
02
#265
0$
0,
12
#270
02
#275
1$
b111111110110 '
b00000000000000000000000000001011 +
1,
b111111110101 -
b0111111110100 .
12
#280
02
#285
0$
0,
12
#290
02
#295
1$
b111111110101 '
b00000000000000000000000000001100 +
1,
b111111110100 -
b0111111110011 .
12
#300
02
#305
0$
0,
12
#310
02
#315
1$
b111111110100 '
b00000000000000000000000000001101 +
1,
b111111110011 -
b0111111110010 .
12
#320
02
#325
0$
0,
12
#330
02
#335
1$
b111111110011 '
b00000000000000000000000000001110 +
1,
b111111110010 -
b0111111110001 .
12
#340
02
#345
0$
0,
12
#350
02
#355
1$
b111111110010 '
b00000000000000000000000000001111 +
1,
b111111110001 -
b0111111110000 .
12
#360
02
#365
0$
0,
12
#370
02
#375
1$
b111111110001 '
b00000000000000000000000000010000 +
1,
b111111110000 -
b0111111101111 .
12
#380
02
#385
0$
0,
12
#390
02
#395
1$
b111111110000 '
b00000000000000000000000000010001 +
1,
b111111101111 -
b0111111101110 .
12
#400
02
#405
0$
0,
12
#410
02
#415
1$
b111111101111 '
b00000000000000000000000000010010 +
1,
b111111101110 -
b0111111101101 .
12
#420
02
#425
0$
0,
12
#430
02
#435
1$
b111111101110 '
b00000000000000000000000000010011 +
1,
b111111101101 -
b0111111101100 .
12
#440
02
#445
0$
0,
12
#450
02
#455
1$
b111111101101 '
b00000000000000000000000000010100 +
1,
b111111101100 -
b0111111101011 .
12
#460
02
#465
0$
0,
12
#470
02
#475
1$
b111111101100 '
b00000000000000000000000000010101 +
1,
b111111101011 -
b0111111101010 .
12
#480
02
#485
0$
0,
12
#490
02
#495
1$
b111111101011 '
b00000000000000000000000000010110 +
1,
b111111101010 -
b0111111101001 .
12
#500
02
#505
0$
0,
12
#510
02
#515
1$
b111111101010 '
b00000000000000000000000000010111 +
1,
b111111101001 -
b0111111101000 .
12
#520
02
#525
0$
0,
12
#530
02
#535
1$
b111111101001 '
b00000000000000000000000000011000 +
1,
b111111101000 -
b0111111100111 .
12
#540
02
#545
0$
0,
12
#550
02
#555
1$
b111111101000 '
b00000000000000000000000000011001 +
1,
b111111100111 -
b0111111100110 .
12
#560
02
#565
0$
0,
12
#570
02
#575
1$
b111111100111 '
b00000000000000000000000000011010 +
1,
b111111100110 -
b0111111100101 .
12
#580
02
#585
0$
0,
12
#590
02
#595
1$
b111111100110 '
b00000000000000000000000000011011 +
1,
b111111100101 -
b0111111100100 .
12
#600
02
#605
0$
0,
12
#610
02
#615
1$
b111111100101 '
b00000000000000000000000000011100 +
1,
b111111100100 -
b0111111100011 .
12
#620
02
#625
0$
0,
12
#630
02
#635
1$
b111111100100 '
b00000000000000000000000000011101 +
1,
b111111100011 -
b0111111100010 .
12
#640
02
#645
0$
0,
12
#650
02
#655
1$
b111111100011 '
b00000000000000000000000000011110 +
1,
b111111100010 -
b0111111100001 .
12
#660
02
#665
0$
0,
12
#670
02
#675
1$
b111111100010 '
b00000000000000000000000000011111 +
1,
b111111100001 -
b0111111100000 .
12
#680
02
#685
0$
0,
12
#690
02
#695
1$
b111111100001 '
b00000000000000000000000000100000 +
1,
b111111100000 -
b0111111011111 .
12
#700
02
#705
0$
0,
12
#710
02
#715
1$
b111111100000 '
b00000000000000000000000000100001 +
1,
b111111011111 -
b0111111011110 .
12
#720
02
#725
0$
0,
12
#730
02
#735
1$
b111111011111 '
b00000000000000000000000000100010 +
1,
b111111011110 -
b0111111011101 .
12
#740
02
#745
0$
0,
12
#750
02
#755
1$
b111111011110 '
b00000000000000000000000000100011 +
1,
b111111011101 -
b0111111011100 .
12
#760
02
#765
0$
0,
12
#770
02
#775
1$
b111111011101 '
b00000000000000000000000000100100 +
1,
b111111011100 -
b0111111011011 .
12
#780
02
#785
0$
0,
12
#790
02
#795
1$
b111111011100 '
b00000000000000000000000000100101 +
1,
b111111011011 -
b0111111011010 .
12
#800
02
#805
0$
0,
12
#810
02
#815
1$
b111111011011 '
b00000000000000000000000000100110 +
1,
b111111011010 -
b0111111011001 .
12
#820
02
#825
0$
0,
12
#830
02
#835
1$
b111111011010 '
b00000000000000000000000000100111 +
1,
b111111011001 -
b0111111011000 .
12
#840
02
#845
0$
0,
12
#850
02
#855
1$
b111111011001 '
b00000000000000000000000000101000 +
1,
b111111011000 -
b0111111010111 .
12
#860
02
#865
0$
0,
12
#870
02
#875
1$
b111111011000 '
b00000000000000000000000000101001 +
1,
b111111010111 -
b0111111010110 .
12
#880
02
#885
0$
0,
12
#890
02
#895
1$
b111111010111 '
b00000000000000000000000000101010 +
1,
b111111010110 -
b0111111010101 .
12
#900
02
#905
0$
0,
12
#910
02
#915
1$
b111111010110 '
b00000000000000000000000000101011 +
1,
b111111010101 -
b0111111010100 .
12
#920
02
#925
0$
0,
12
#930
02
#935
1$
b111111010101 '
b00000000000000000000000000101100 +
1,
b111111010100 -
b0111111010011 .
12
#940
02
#945
0$
0,
12
#950
02
#955
1$
b111111010100 '
b00000000000000000000000000101101 +
1,
b111111010011 -
b0111111010010 .
12
#960
02
#965
0$
0,
12
#970
02
#975
1$
b111111010011 '
b00000000000000000000000000101110 +
1,
b111111010010 -
b0111111010001 .
12
#980
02
#985
0$
0,
12
#990
02
#995
1$
b111111010010 '
b00000000000000000000000000101111 +
1,
b111111010001 -
b0111111010000 .
12
#1000
02
#1005
0$
0,
12
#1010
02
#1015
1$
b111111010001 '
b00000000000000000000000000110000 +
1,
b111111010000 -
b0111111001111 .
12
#1020
02
#1025
0$
0,
12
#1030
02
#1035
1$
b111111010000 '
b00000000000000000000000000110001 +
1,
b111111001111 -
b0111111001110 .
12
#1040
02
#1045
0$
0,
12
#1050
02
#1055
1$
b111111001111 '
b00000000000000000000000000110010 +
1,
b111111001110 -
b0111111001101 .
12
#1060
02
#1065
0$
0,
12
#1070
02
#1075
1$
b111111001110 '
b00000000000000000000000000110011 +
1,
b111111001101 -
b0111111001100 .
12
#1080
02
#1085
0$
0,
12
#1090
02
#1095
1$
b111111001101 '
b00000000000000000000000000110100 +
1,
b111111001100 -
b0111111001011 .
12
#1100
02
#1105
0$
0,
12
#1110
02
#1115
1$
b111111001100 '
b00000000000000000000000000110101 +
1,
b111111001011 -
b0111111001010 .
12
#1120
02
#1125
0$
0,
12
#1130
02
#1135
1$
b111111001011 '
b00000000000000000000000000110110 +
1,
b111111001010 -
b0111111001001 .
12
#1140
02
#1145
0$
0,
12
#1150
02
#1155
1$
b111111001010 '
b00000000000000000000000000110111 +
1,
b111111001001 -
b0111111001000 .
12
#1160
02
#1165
0$
0,
12
#1170
02
#1175
1$
b111111001001 '
b00000000000000000000000000111000 +
1,
b111111001000 -
b0111111000111 .
12
#1180
02
#1185
0$
0,
12
#1190
02
#1195
1$
b111111001000 '
b00000000000000000000000000111001 +
1,
b111111000111 -
b0111111000110 .
12
#1200
02
#1205
0$
0,
12
#1210
02
#1215
1$
b111111000111 '
b00000000000000000000000000111010 +
1,
b111111000110 -
b0111111000101 .
12
#1220
02
#1225
0$
0,
12
#1230
02
#1235
1$
b111111000110 '
b00000000000000000000000000111011 +
1,
b111111000101 -
b0111111000100 .
12
#1240
02
#1245
0$
0,
12
#1250
02
#1255
1$
b111111000101 '
b00000000000000000000000000111100 +
1,
b111111000100 -
b0111111000011 .
12
#1260
02
#1265
0$
0,
12
#1270
02
#1275
1$
b111111000100 '
b00000000000000000000000000111101 +
1,
b111111000011 -
b0111111000010 .
12
#1280
02
#1285
0$
0,
12
#1290
02
#1295
1$
b111111000011 '
b00000000000000000000000000111110 +
1,
b111111000010 -
b0111111000001 .
12
#1300
02
#1305
0$
0,
12
#1310
02
#1315
1$
b111111000010 '
b00000000000000000000000000111111 +
1,
b111111000001 -
b0111111000000 .
12
#1320
02
#1325
0$
0,
12
#1330
02
#1335
1$
b111111000001 '
b00000000000000000000000001000000 +
1,
b111111000000 -
b0111110111111 .
12
#1340
02
#1345
0$
0,
12
#1350
02
#1355
1$
b111111000000 '
b00000000000000000000000001000001 +
1,
b111110111111 -
b0111110111110 .
12
#1360
02
#1365
0$
0,
12
#1370
02
#1375
1$
b111110111111 '
b00000000000000000000000001000010 +
1,
b111110111110 -
b0111110111101 .
12
#1380
02
#1385
0$
0,
12
#1390
02
#1395
1$
b111110111110 '
b00000000000000000000000001000011 +
1,
b111110111101 -
b0111110111100 .
12
#1400
02
#1405
0$
0,
12
#1410
02
#1415
1$
b111110111101 '
b00000000000000000000000001000100 +
1,
b111110111100 -
b0111110111011 .
12
#1420
02
#1425
0$
0,
12
#1430
02
#1435
1$
b111110111100 '
b00000000000000000000000001000101 +
1,
b111110111011 -
b0111110111010 .
12
#1440
02
#1445
0$
0,
12
#1450
02
#1455
1$
b111110111011 '
b00000000000000000000000001000110 +
1,
b111110111010 -
b0111110111001 .
12
#1460
02
#1465
0$
0,
12
#1470
02
#1475
1$
b111110111010 '
b00000000000000000000000001000111 +
1,
b111110111001 -
b0111110111000 .
12
#1480
02
#1485
0$
0,
12
#1490
02
#1495
1$
b111110111001 '
b00000000000000000000000001001000 +
1,
b111110111000 -
b0111110110111 .
12
#1500
02
#1505
0$
0,
12
#1510
02
#1515
1$
b111110111000 '
b00000000000000000000000001001001 +
1,
b111110110111 -
b0111110110110 .
12
#1520
02
#1525
0$
0,
12
#1530
02
#1535
1$
b111110110111 '
b00000000000000000000000001001010 +
1,
b111110110110 -
b0111110110101 .
12
#1540
02
#1545
0$
0,
12
#1550
02
#1555
1$
b111110110110 '
b00000000000000000000000001001011 +
1,
b111110110101 -
b0111110110100 .
12
#1560
02
#1565
0$
0,
12
#1570
02
#1575
1$
b111110110101 '
b00000000000000000000000001001100 +
1,
b111110110100 -
b0111110110011 .
12
#1580
02
#1585
0$
0,
12
#1590
02
#1595
1$
b111110110100 '
b00000000000000000000000001001101 +
1,
b111110110011 -
b0111110110010 .
12
#1600
02
#1605
0$
0,
12
#1610
02
#1615
1$
b111110110011 '
b00000000000000000000000001001110 +
1,
b111110110010 -
b0111110110001 .
12
#1620
02
#1625
0$
0,
12
#1630
02
#1635
1$
b111110110010 '
b00000000000000000000000001001111 +
1,
b111110110001 -
b0111110110000 .
12
#1640
02
#1645
0$
0,
12
#1650
02
#1655
1$
b111110110001 '
b00000000000000000000000001010000 +
1,
b111110110000 -
b0111110101111 .
12
#1660
02
#1665
0$
0,
12
#1670
02
#1675
1$
b111110110000 '
b00000000000000000000000001010001 +
1,
b111110101111 -
b0111110101110 .
12
#1680
02
#1685
0$
0,
12
#1690
02
#1695
1$
b111110101111 '
b00000000000000000000000001010010 +
1,
b111110101110 -
b0111110101101 .
12
#1700
02
#1705
0$
0,
12
#1710
02
#1715
1$
b111110101110 '
b00000000000000000000000001010011 +
1,
b111110101101 -
b0111110101100 .
12
#1720
02
#1725
0$
0,
12
#1730
02
#1735
1$
b111110101101 '
b00000000000000000000000001010100 +
1,
b111110101100 -
b0111110101011 .
12
#1740
02
#1745
0$
0,
12
#1750
02
#1755
1$
b111110101100 '
b00000000000000000000000001010101 +
1,
b111110101011 -
b0111110101010 .
12
#1760
02
#1765
0$
0,
12
#1770
02
#1775
1$
b111110101011 '
b00000000000000000000000001010110 +
1,
b111110101010 -
b0111110101001 .
12
#1780
02
#1785
0$
0,
12
#1790
02
#1795
1$
b111110101010 '
b00000000000000000000000001010111 +
1,
b111110101001 -
b0111110101000 .
12
#1800
02
#1805
0$
0,
12
#1810
02
#1815
1$
b111110101001 '
b00000000000000000000000001011000 +
1,
b111110101000 -
b0111110100111 .
12
#1820
02
#1825
0$
0,
12
#1830
02
#1835
1$
b111110101000 '
b00000000000000000000000001011001 +
1,
b111110100111 -
b0111110100110 .
12
#1840
02
#1845
0$
0,
12
#1850
02
#1855
1$
b111110100111 '
b00000000000000000000000001011010 +
1,
b111110100110 -
b0111110100101 .
12
#1860
02
#1865
0$
0,
12
#1870
02
#1875
1$
b111110100110 '
b00000000000000000000000001011011 +
1,
b111110100101 -
b0111110100100 .
12
#1880
02
#1885
0$
0,
12
#1890
02
#1895
1$
b111110100101 '
b00000000000000000000000001011100 +
1,
b111110100100 -
b0111110100011 .
12
#1900
02
#1905
0$
0,
12
#1910
02
#1915
1$
b111110100100 '
b00000000000000000000000001011101 +
1,
b111110100011 -
b0111110100010 .
12
#1920
02
#1925
0$
0,
12
#1930
02
#1935
1$
b111110100011 '
b00000000000000000000000001011110 +
1,
b111110100010 -
b0111110100001 .
12
#1940
02
#1945
0$
0,
12
#1950
02
#1955
1$
b111110100010 '
b00000000000000000000000001011111 +
1,
b111110100001 -
b0111110100000 .
12
#1960
02
#1965
0$
0,
12
#1970
02
#1975
1$
b111110100001 '
b00000000000000000000000001100000 +
1,
b111110100000 -
b0111110011111 .
12
#1980
02
#1985
0$
0,
12
#1990
02
#1995
1$
b111110100000 '
b00000000000000000000000001100001 +
1,
b111110011111 -
b0111110011110 .
12
#2000
02
#2005
0$
0,
12
#2010
02
#2015
1$
b111110011111 '
b00000000000000000000000001100010 +
1,
b111110011110 -
b0111110011101 .
12
#2020
02
#2025
0$
0,
12
#2030
02
#2035
1$
b111110011110 '
b00000000000000000000000001100011 +
1,
b111110011101 -
b0111110011100 .
12
#2040
02
#2045
0$
0,
12
#2050
02
#2055
1$
b111110011101 '
b00000000000000000000000001100100 +
1,
b111110011100 -
b0111110011011 .
12
#2060
02
#2065
0$
0,
12
#2070
02
#2075
1$
b111110011100 '
b00000000000000000000000001100101 +
1,
b111110011011 -
b0111110011010 .
12
#2080
02
#2085
0$
0,
12
#2090
02
#2095
1$
b111110011011 '
b00000000000000000000000001100110 +
1,
b111110011010 -
b0111110011001 .
12
#2100
02
#2105
0$
0,
12
#2110
02
#2115
1$
b111110011010 '
b00000000000000000000000001100111 +
1,
b111110011001 -
b0111110011000 .
12
#2120
02
#2125
0$
0,
12
#2130
02
#2135
1$
b111110011001 '
b00000000000000000000000001101000 +
1,
b111110011000 -
b0111110010111 .
12
#2140
02
#2145
0$
0,
12
#2150
02
#2155
1$
b111110011000 '
b00000000000000000000000001101001 +
1,
b111110010111 -
b0111110010110 .
12
#2160
02
#2165
0$
0,
12
#2170
02
#2175
1$
b111110010111 '
b00000000000000000000000001101010 +
1,
b111110010110 -
b0111110010101 .
12
#2180
02
#2185
0$
0,
12
#2190
02
#2195
1$
b111110010110 '
b00000000000000000000000001101011 +
1,
b111110010101 -
b0111110010100 .
12
#2200
02
#2205
0$
0,
12
#2210
02
#2215
1$
b111110010101 '
b00000000000000000000000001101100 +
1,
b111110010100 -
b0111110010011 .
12
#2220
02
#2225
0$
0,
12
#2230
02
#2235
1$
b111110010100 '
b00000000000000000000000001101101 +
1,
b111110010011 -
b0111110010010 .
12
#2240
02
#2245
0$
0,
12
#2250
02
#2255
1$
b111110010011 '
b00000000000000000000000001101110 +
1,
b111110010010 -
b0111110010001 .
12
#2260
02
#2265
0$
0,
12
#2270
02
#2275
1$
b111110010010 '
b00000000000000000000000001101111 +
1,
b111110010001 -
b0111110010000 .
12
#2280
02
#2285
0$
0,
12
#2290
02
#2295
1$
b111110010001 '
b00000000000000000000000001110000 +
1,
b111110010000 -
b0111110001111 .
12
#2300
02
#2305
0$
0,
12
#2310
02
#2315
1$
b111110010000 '
b00000000000000000000000001110001 +
1,
b111110001111 -
b0111110001110 .
12
#2320
02
#2325
0$
0,
12
#2330
02
#2335
1$
b111110001111 '
b00000000000000000000000001110010 +
1,
b111110001110 -
b0111110001101 .
12
#2340
02
#2345
0$
0,
12
#2350
02
#2355
1$
b111110001110 '
b00000000000000000000000001110011 +
1,
b111110001101 -
b0111110001100 .
12
#2360
02
#2365
0$
0,
12
#2370
02
#2375
1$
b111110001101 '
b00000000000000000000000001110100 +
1,
b111110001100 -
b0111110001011 .
12
#2380
02
#2385
0$
0,
12
#2390
02
#2395
1$
b111110001100 '
b00000000000000000000000001110101 +
1,
b111110001011 -
b0111110001010 .
12
#2400
02
#2405
0$
0,
12
#2410
02
#2415
1$
b111110001011 '
b00000000000000000000000001110110 +
1,
b111110001010 -
b0111110001001 .
12
#2420
02
#2425
0$
0,
12
#2430
02
#2435
1$
b111110001010 '
b00000000000000000000000001110111 +
1,
b111110001001 -
b0111110001000 .
12
#2440
02
#2445
0$
0,
12
#2450
02
#2455
1$
b111110001001 '
b00000000000000000000000001111000 +
1,
b111110001000 -
b0111110000111 .
12
#2460
02
#2465
0$
0,
12
#2470
02
#2475
1$
b111110001000 '
b00000000000000000000000001111001 +
1,
b111110000111 -
b0111110000110 .
12
#2480
02
#2485
0$
0,
12
#2490
02
#2495
1$
b111110000111 '
b00000000000000000000000001111010 +
1,
b111110000110 -
b0111110000101 .
12
#2500
02
#2505
0$
0,
12
#2510
02
#2515
1$
b111110000110 '
b00000000000000000000000001111011 +
1,
b111110000101 -
b0111110000100 .
12
#2520
02
#2525
0$
0,
12
#2530
02
#2535
1$
b111110000101 '
b00000000000000000000000001111100 +
1,
b111110000100 -
b0111110000011 .
12
#2540
02
#2545
0$
0,
12
#2550
02
#2555
1$
b111110000100 '
b00000000000000000000000001111101 +
1,
b111110000011 -
b0111110000010 .
12
#2560
02
#2565
0$
0,
12
#2570
02
#2575
1$
b111110000011 '
b00000000000000000000000001111110 +
1,
b111110000010 -
b0111110000001 .
12
#2580
02
#2585
0$
0,
12
#2590
02
#2595
1$
b111110000010 '
b00000000000000000000000001111111 +
1,
b111110000001 -
b0111110000000 .
12
#2600
02
#2605
0$
0,
12
#2610
02
#2615
1$
b111110000001 '
b00000000000000000000000010000000 +
1,
b111110000000 -
b0111101111111 .
12
#2620
02
#2625
0$
0,
12
#2630
02
#2635
1$
b111110000000 '
b00000000000000000000000010000001 +
1,
b111101111111 -
b0111101111110 .
12
#2640
02
#2645
0$
0,
12
#2650
02
#2655
1$
b111101111111 '
b00000000000000000000000010000010 +
1,
b111101111110 -
b0111101111101 .
12
#2660
02
#2665
0$
0,
12
#2670
02
#2675
1$
b111101111110 '
b00000000000000000000000010000011 +
1,
b111101111101 -
b0111101111100 .
12
#2680
02
#2685
0$
0,
12
#2690
02
#2695
1$
b111101111101 '
b00000000000000000000000010000100 +
1,
b111101111100 -
b0111101111011 .
12
#2700
02
#2705
0$
0,
12
#2710
02
#2715
1$
b111101111100 '
b00000000000000000000000010000101 +
1,
b111101111011 -
b0111101111010 .
12
#2720
02
#2725
0$
0,
12
#2730
02
#2735
1$
b111101111011 '
b00000000000000000000000010000110 +
1,
b111101111010 -
b0111101111001 .
12
#2740
02
#2745
0$
0,
12
#2750
02
#2755
1$
b111101111010 '
b00000000000000000000000010000111 +
1,
b111101111001 -
b0111101111000 .
12
#2760
02
#2765
0$
0,
12
#2770
02
#2775
1$
b111101111001 '
b00000000000000000000000010001000 +
1,
b111101111000 -
b0111101110111 .
12
#2780
02
#2785
0$
0,
12
#2790
02
#2795
1$
b111101111000 '
b00000000000000000000000010001001 +
1,
b111101110111 -
b0111101110110 .
12
#2800
02
#2805
0$
0,
12
#2810
02
#2815
1$
b111101110111 '
b00000000000000000000000010001010 +
1,
b111101110110 -
b0111101110101 .
12
#2820
02
#2825
0$
0,
12
#2830
02
#2835
1$
b111101110110 '
b00000000000000000000000010001011 +
1,
b111101110101 -
b0111101110100 .
12
#2840
02
#2845
0$
0,
12
#2850
02
#2855
1$
b111101110101 '
b00000000000000000000000010001100 +
1,
b111101110100 -
b0111101110011 .
12
#2860
02
#2865
0$
0,
12
#2870
02
#2875
1$
b111101110100 '
b00000000000000000000000010001101 +
1,
b111101110011 -
b0111101110010 .
12
#2880
02
#2885
0$
0,
12
#2890
02
#2895
1$
b111101110011 '
b00000000000000000000000010001110 +
1,
b111101110010 -
b0111101110001 .
12
#2900
02
#2905
0$
0,
12
#2910
02
#2915
1$
b111101110010 '
b00000000000000000000000010001111 +
1,
b111101110001 -
b0111101110000 .
12
#2920
02
#2925
0$
0,
12
#2930
02
#2935
1$
b111101110001 '
b00000000000000000000000010010000 +
1,
b111101110000 -
b0111101101111 .
12
#2940
02
#2945
0$
0,
12
#2950
02
#2955
1$
b111101110000 '
b00000000000000000000000010010001 +
1,
b111101101111 -
b0111101101110 .
12
#2960
02
#2965
0$
0,
12
#2970
02
#2975
1$
b111101101111 '
b00000000000000000000000010010010 +
1,
b111101101110 -
b0111101101101 .
12
#2980
02
#2985
0$
0,
12
#2990
02
#2995
1$
b111101101110 '
b00000000000000000000000010010011 +
1,
b111101101101 -
b0111101101100 .
12
#3000
02
#3005
0$
0,
12
#3010
02
#3015
1$
b111101101101 '
b00000000000000000000000010010100 +
1,
b111101101100 -
b0111101101011 .
12
#3020
02
#3025
0$
0,
12
#3030
02
#3035
1$
b111101101100 '
b00000000000000000000000010010101 +
1,
b111101101011 -
b0111101101010 .
12
#3040
02
#3045
0$
0,
12
#3050
02
#3055
1$
b111101101011 '
b00000000000000000000000010010110 +
1,
b111101101010 -
b0111101101001 .
12
#3060
02
#3065
0$
0,
12
#3070
02
#3075
1$
b111101101010 '
b00000000000000000000000010010111 +
1,
b111101101001 -
b0111101101000 .
12
#3080
02
#3085
0$
0,
12
#3090
02
#3095
1$
b111101101001 '
b00000000000000000000000010011000 +
1,
b111101101000 -
b0111101100111 .
12
#3100
02
#3105
0$
0,
12
#3110
02
#3115
1$
b111101101000 '
b00000000000000000000000010011001 +
1,
b111101100111 -
b0111101100110 .
12
#3120
02
#3125
0$
0,
12
#3130
02
#3135
1$
b111101100111 '
b00000000000000000000000010011010 +
1,
b111101100110 -
b0111101100101 .
12
#3140
02
#3145
0$
0,
12
#3150
02
#3155
1$
b111101100110 '
b00000000000000000000000010011011 +
1,
b111101100101 -
b0111101100100 .
12
#3160
02
#3165
0$
0,
12
#3170
02
#3175
1$
b111101100101 '
b00000000000000000000000010011100 +
1,
b111101100100 -
b0111101100011 .
12
#3180
02
#3185
0$
0,
12
#3190
02
#3195
1$
b111101100100 '
b00000000000000000000000010011101 +
1,
b111101100011 -
b0111101100010 .
12
#3200
02
#3205
0$
0,
12
#3210
02
#3215
1$
b111101100011 '
b00000000000000000000000010011110 +
1,
b111101100010 -
b0111101100001 .
12
#3220
02
#3225
0$
0,
12
#3230
02
#3235
1$
b111101100010 '
b00000000000000000000000010011111 +
1,
b111101100001 -
b0111101100000 .
12
#3240
02
#3245
0$
0,
12
#3250
02
#3255
1$
b111101100001 '
b00000000000000000000000010100000 +
1,
b111101100000 -
b0111101011111 .
12
#3260
02
#3265
0$
0,
12
#3270
02
#3275
1$
b111101100000 '
b00000000000000000000000010100001 +
1,
b111101011111 -
b0111101011110 .
12
#3280
02
#3285
0$
0,
12
#3290
02
#3295
1$
b111101011111 '
b00000000000000000000000010100010 +
1,
b111101011110 -
b0111101011101 .
12
#3300
02
#3305
0$
0,
12
#3310
02
#3315
1$
b111101011110 '
b00000000000000000000000010100011 +
1,
b111101011101 -
b0111101011100 .
12
#3320
02
#3325
0$
0,
12
#3330
02
#3335
1$
b111101011101 '
b00000000000000000000000010100100 +
1,
b111101011100 -
b0111101011011 .
12
#3340
02
#3345
0$
0,
12
#3350
02
#3355
1$
b111101011100 '
b00000000000000000000000010100101 +
1,
b111101011011 -
b0111101011010 .
12
#3360
02
#3365
0$
0,
12
#3370
02
#3375
1$
b111101011011 '
b00000000000000000000000010100110 +
1,
b111101011010 -
b0111101011001 .
12
#3380
02
#3385
0$
0,
12
#3390
02
#3395
1$
b111101011010 '
b00000000000000000000000010100111 +
1,
b111101011001 -
b0111101011000 .
12
#3400
02
#3405
0$
0,
12
#3410
02
#3415
1$
b111101011001 '
b00000000000000000000000010101000 +
1,
b111101011000 -
b0111101010111 .
12
#3420
02
#3425
0$
0,
12
#3430
02
#3435
1$
b111101011000 '
b00000000000000000000000010101001 +
1,
b111101010111 -
b0111101010110 .
12
#3440
02
#3445
0$
0,
12
#3450
02
#3455
1$
b111101010111 '
b00000000000000000000000010101010 +
1,
b111101010110 -
b0111101010101 .
12
#3460
02
#3465
0$
0,
12
#3470
02
#3475
1$
b111101010110 '
b00000000000000000000000010101011 +
1,
b111101010101 -
b0111101010100 .
12
#3480
02
#3485
0$
0,
12
#3490
02
#3495
1$
b111101010101 '
b00000000000000000000000010101100 +
1,
b111101010100 -
b0111101010011 .
12
#3500
02
#3505
0$
0,
12
#3510
02
#3515
1$
b111101010100 '
b00000000000000000000000010101101 +
1,
b111101010011 -
b0111101010010 .
12
#3520
02
#3525
0$
0,
12
#3530
02
#3535
1$
b111101010011 '
b00000000000000000000000010101110 +
1,
b111101010010 -
b0111101010001 .
12
#3540
02
#3545
0$
0,
12
#3550
02
#3555
1$
b111101010010 '
b00000000000000000000000010101111 +
1,
b111101010001 -
b0111101010000 .
12
#3560
02
#3565
0$
0,
12
#3570
02
#3575
1$
b111101010001 '
b00000000000000000000000010110000 +
1,
b111101010000 -
b0111101001111 .
12
#3580
02
#3585
0$
0,
12
#3590
02
#3595
1$
b111101010000 '
b00000000000000000000000010110001 +
1,
b111101001111 -
b0111101001110 .
12
#3600
02
#3605
0$
0,
12
#3610
02
#3615
1$
b111101001111 '
b00000000000000000000000010110010 +
1,
b111101001110 -
b0111101001101 .
12
#3620
02
#3625
0$
0,
12
#3630
02
#3635
1$
b111101001110 '
b00000000000000000000000010110011 +
1,
b111101001101 -
b0111101001100 .
12
#3640
02
#3645
0$
0,
12
#3650
02
#3655
1$
b111101001101 '
b00000000000000000000000010110100 +
1,
b111101001100 -
b0111101001011 .
12
#3660
02
#3665
0$
0,
12
#3670
02
#3675
1$
b111101001100 '
b00000000000000000000000010110101 +
1,
b111101001011 -
b0111101001010 .
12
#3680
02
#3685
0$
0,
12
#3690
02
#3695
1$
b111101001011 '
b00000000000000000000000010110110 +
1,
b111101001010 -
b0111101001001 .
12
#3700
02
#3705
0$
0,
12
#3710
02
#3715
1$
b111101001010 '
b00000000000000000000000010110111 +
1,
b111101001001 -
b0111101001000 .
12
#3720
02
#3725
0$
0,
12
#3730
02
#3735
1$
b111101001001 '
b00000000000000000000000010111000 +
1,
b111101001000 -
b0111101000111 .
12
#3740
02
#3745
0$
0,
12
#3750
02
