mem_wr.vcd
$version Generated by VerilatedVcd $end
$timescale 1ps $end
 $scope module mem_pkg $end
  $var wire 32 c BLOCK_BYTES [31:0] $end
  $var wire 32 d NUM_BLOCKS [31:0] $end
  $var wire 32 e DATA_WIDTH [31:0] $end
  $var wire 32 f ADDR_W [31:0] $end
  $var wire 32 g FOOTER_BYTES [31:0] $end
  $var wire 32 h PAYLOAD_BYTES [31:0] $end
  $var wire 32 i BLOCK_BITS [31:0] $end
 $upscope $end
 $scope module tb_memory_write_ctrl $end
  $var wire 1 ] clk $end
  $var wire 1 # rst_n $end
  $var wire 8 $ data_i [7:0] $end
  $var wire 1 % data_valid_i $end
  $var wire 1 & data_begin_i $end
  $var wire 1 ' data_end_i $end
  $var wire 1 ( data_ready_o $end
  $var wire 1 ) fl_alloc_req_o $end
  $var wire 1 * fl_alloc_gnt_i $end
  $var wire 12 + fl_alloc_block_idx_i [11:0] $end
  $var wire 1 , mem_ready_i $end
  $var wire 1 - mem_we_o $end
  $var wire 12 . mem_addr_o [11:0] $end
  $var wire 512 / mem_wdata_o [511:0] $end
  $var wire 12 ? start_addr_o [11:0] $end
  $var wire 32 @ write_count [31:0] $end
  $var real 64 _ CLK_PERIOD $end
  $var wire 12 A next_block_idx [11:0] $end
  $var wire 32 a FOOTER_BITS [31:0] $end
  $var wire 16 B footer_dec [15:0] $end
  $var wire 1 C unused_upper_reduce $end
  $scope module dut $end
   $var wire 1 ] clk $end
   $var wire 1 # rst_n $end
   $var wire 8 $ data_i [7:0] $end
   $var wire 1 % data_valid_i $end
   $var wire 1 & data_begin_i $end
   $var wire 1 ' data_end_i $end
   $var wire 1 ( data_ready_o $end
   $var wire 1 ) fl_alloc_req_o $end
   $var wire 1 * fl_alloc_gnt_i $end
   $var wire 12 + fl_alloc_block_idx_i [11:0] $end
   $var wire 1 , mem_ready_i $end
   $var wire 1 - mem_we_o $end
   $var wire 12 . mem_addr_o [11:0] $end
   $var wire 512 / mem_wdata_o [511:0] $end
   $var wire 12 ? start_addr_o [11:0] $end
   $var wire 32 b PAYLOAD_BITS [31:0] $end
   $var wire 1 D frame_allocated $end
   $var wire 1 E next_frame_allocated $end
   $var wire 2 F state [1:0] $end
   $var wire 2 ^ state_n [1:0] $end
   $var wire 16 G footer [15:0] $end
   $var wire 496 H payload_reg [495:0] $end
   $var wire 6 X beat_cnt [5:0] $end
   $var wire 12 Y curr_idx [11:0] $end
   $var wire 12 Z next_idx [11:0] $end
   $var wire 1 [ mem_trans_success $end
   $var wire 12 ? start_addr [11:0] $end
   $var wire 12 \ frame_cnt [11:0] $end
  $upscope $end
 $upscope $end
$enddefinitions $end


#0
0#
b00000000 $
0%
0&
0'
1(
0)
0*
b000000000000 +
0,
0-
b000000000000 .
b00000000000000000000000000000000000000000000000000000000000000000000000000000000000000000000000000000000000000000000000000000000000000000000000000000000000000000000000000000000000000000000000000000000000000000000000000000000000000000000000000000000000000000000000000000000000000000000000000000000000000000000000000000000000000000000000000000000000000000000000000000000000000000000000000000000000000000000000000000000000000000000000000000000000000000000000000000000000000000000000000000000000000000000000000000000 /
b000000000000 ?
b00000000000000000000000000000000 @
b000000000000 A
b0000000000000000 B
0C
0D
0E
b00 F
b0000000000000000 G
b0000000000000000000000000000000000000000000000000000000000000000000000000000000000000000000000000000000000000000000000000000000000000000000000000000000000000000000000000000000000000000000000000000000000000000000000000000000000000000000000000000000000000000000000000000000000000000000000000000000000000000000000000000000000000000000000000000000000000000000000000000000000000000000000000000000000000000000000000000000000000000000000000000000000000000000000000000000000000000000000000000000000000000 H
b000000 X
b000000000000 Y
b000000000000 Z
0[
b000000000000 \
0]
b00 ^
r10 _
b00000000000000000000000000010000 a
b00000000000000000000000111110000 b
b00000000000000000000000001000000 c
b00000000000000000001000000000000 d
b00000000000000000000000000001000 e
b00000000000000000000000000001100 f
b00000000000000000000000000000010 g
b00000000000000000000000000111110 h
b00000000000000000000001000000000 i
#5
1]
#10
0]
#15
1]
#20
0]
#25
1]
#30
0]
#35
1]
#40
0]
#45
1#
1,
1]
#50
0]
#55
1[
1]
#60
0]
#65
1]
#70
0]
#75
1]
#80
0]
#85
1]
#90
0]
#95
1]
#100
1%
1&
0]
b01 ^
#105
1)
b01 F
b000001 X
1]
#110
b00000001 $
0&
0]
#115
1*
b000000000001 A
b0000000000000000000000000000000000000000000000000000000000000000000000000000000000000000000000000000000000000000000000000000000000000000000000000000000000000000000000000000000000000000000000000000000000000000000000000000000000000000000000000000000000000000000000000000000000000000000000000000000000000000000000000000000000000000000000000000000000000000000000000000000000000000000000000000000000000000000000000000000000000000000000000000000000000000000000000000000000000000000000000000000000000001 H
b000010 X
1]
#120
b00000010 $
0]
#125
0)
b000000000001 +
b000000000010 A
1D
b0000000000000000000000000000000000000000000000000000000000000000000000000000000000000000000000000000000000000000000000000000000000000000000000000000000000000000000000000000000000000000000000000000000000000000000000000000000000000000000000000000000000000000000000000000000000000000000000000000000000000000000000000000000000000000000000000000000000000000000000000000000000000000000000000000000000000000000000000000000000000000000000000000000000000000000000000000000000000000000000000000000100000010 H
b000011 X
1]
#130
b00000011 $
0]
#135
0*
1E
b0000000000000000000000000000000000000000000000000000000000000000000000000000000000000000000000000000000000000000000000000000000000000000000000000000000000000000000000000000000000000000000000000000000000000000000000000000000000000000000000000000000000000000000000000000000000000000000000000000000000000000000000000000000000000000000000000000000000000000000000000000000000000000000000000000000000000000000000000000000000000000000000000000000000000000000000000000000000000000000000010000001000000011 H
b000100 X
b000000000001 Z
1]
#140
b00000100 $
0]
#145
b0000000000000000000000000000000000000000000000000000000000000000000000000000000000000000000000000000000000000000000000000000000000000000000000000000000000000000000000000000000000000000000000000000000000000000000000000000000000000000000000000000000000000000000000000000000000000000000000000000000000000000000000000000000000000000000000000000000000000000000000000000000000000000000000000000000000000000000000000000000000000000000000000000000000000000000000000000000000000001000000100000001100000100 H
b000101 X
1]
#150
b00000101 $
0]
#155
b0000000000000000000000000000000000000000000000000000000000000000000000000000000000000000000000000000000000000000000000000000000000000000000000000000000000000000000000000000000000000000000000000000000000000000000000000000000000000000000000000000000000000000000000000000000000000000000000000000000000000000000000000000000000000000000000000000000000000000000000000000000000000000000000000000000000000000000000000000000000000000000000000000000000000000000000000000000100000010000000110000010000000101 H
b000110 X
1]
#160
b00000110 $
0]
#165
b0000000000000000000000000000000000000000000000000000000000000000000000000000000000000000000000000000000000000000000000000000000000000000000000000000000000000000000000000000000000000000000000000000000000000000000000000000000000000000000000000000000000000000000000000000000000000000000000000000000000000000000000000000000000000000000000000000000000000000000000000000000000000000000000000000000000000000000000000000000000000000000000000000000000000000000000010000001000000011000001000000010100000110 H
b000111 X
1]
#170
b00000111 $
0]
#175
b0000000000000000000000000000000000000000000000000000000000000000000000000000000000000000000000000000000000000000000000000000000000000000000000000000000000000000000000000000000000000000000000000000000000000000000000000000000000000000000000000000000000000000000000000000000000000000000000000000000000000000000000000000000000000000000000000000000000000000000000000000000000000000000000000000000000000000000000000000000000000000000000000000000000000001000000100000001100000100000001010000011000000111 H
b001000 X
1]
#180
b00001000 $
0]
#185
b0000000000000000000000000000000000000000000000000000000000000000000000000000000000000000000000000000000000000000000000000000000000000000000000000000000000000000000000000000000000000000000000000000000000000000000000000000000000000000000000000000000000000000000000000000000000000000000000000000000000000000000000000000000000000000000000000000000000000000000000000000000000000000000000000000000000000000000000000000000000000000000000000000000100000010000000110000010000000101000001100000011100001000 H
b001001 X
1]
#190
b00001001 $
0]
#195
b0000000000000000000000000000000000000000000000000000000000000000000000000000000000000000000000000000000000000000000000000000000000000000000000000000000000000000000000000000000000000000000000000000000000000000000000000000000000000000000000000000000000000000000000000000000000000000000000000000000000000000000000000000000000000000000000000000000000000000000000000000000000000000000000000000000000000000000000000000000000000000000000010000001000000011000001000000010100000110000001110000100000001001 H
b001010 X
1]
#200
b00001010 $
0]
#205
b0000000000000000000000000000000000000000000000000000000000000000000000000000000000000000000000000000000000000000000000000000000000000000000000000000000000000000000000000000000000000000000000000000000000000000000000000000000000000000000000000000000000000000000000000000000000000000000000000000000000000000000000000000000000000000000000000000000000000000000000000000000000000000000000000000000000000000000000000000000000000001000000100000001100000100000001010000011000000111000010000000100100001010 H
b001011 X
1]
#210
b00001011 $
0]
#215
b0000000000000000000000000000000000000000000000000000000000000000000000000000000000000000000000000000000000000000000000000000000000000000000000000000000000000000000000000000000000000000000000000000000000000000000000000000000000000000000000000000000000000000000000000000000000000000000000000000000000000000000000000000000000000000000000000000000000000000000000000000000000000000000000000000000000000000000000000000000100000010000000110000010000000101000001100000011100001000000010010000101000001011 H
b001100 X
1]
#220
b00001100 $
0]
#225
b0000000000000000000000000000000000000000000000000000000000000000000000000000000000000000000000000000000000000000000000000000000000000000000000000000000000000000000000000000000000000000000000000000000000000000000000000000000000000000000000000000000000000000000000000000000000000000000000000000000000000000000000000000000000000000000000000000000000000000000000000000000000000000000000000000000000000000000000010000001000000011000001000000010100000110000001110000100000001001000010100000101100001100 H
b001101 X
1]
#230
b00001101 $
0]
#235
b0000000000000000000000000000000000000000000000000000000000000000000000000000000000000000000000000000000000000000000000000000000000000000000000000000000000000000000000000000000000000000000000000000000000000000000000000000000000000000000000000000000000000000000000000000000000000000000000000000000000000000000000000000000000000000000000000000000000000000000000000000000000000000000000000000000000000001000000100000001100000100000001010000011000000111000010000000100100001010000010110000110000001101 H
b001110 X
1]
#240
b00001110 $
0]
#245
b0000000000000000000000000000000000000000000000000000000000000000000000000000000000000000000000000000000000000000000000000000000000000000000000000000000000000000000000000000000000000000000000000000000000000000000000000000000000000000000000000000000000000000000000000000000000000000000000000000000000000000000000000000000000000000000000000000000000000000000000000000000000000000000000000000000100000010000000110000010000000101000001100000011100001000000010010000101000001011000011000000110100001110 H
b001111 X
1]
#250
b00001111 $
0]
#255
b0000000000000000000000000000000000000000000000000000000000000000000000000000000000000000000000000000000000000000000000000000000000000000000000000000000000000000000000000000000000000000000000000000000000000000000000000000000000000000000000000000000000000000000000000000000000000000000000000000000000000000000000000000000000000000000000000000000000000000000000000000000000000000000000010000001000000011000001000000010100000110000001110000100000001001000010100000101100001100000011010000111000001111 H
b010000 X
1]
#260
b00010000 $
0]
#265
b0000000000000000000000000000000000000000000000000000000000000000000000000000000000000000000000000000000000000000000000000000000000000000000000000000000000000000000000000000000000000000000000000000000000000000000000000000000000000000000000000000000000000000000000000000000000000000000000000000000000000000000000000000000000000000000000000000000000000000000000000000000000000001000000100000001100000100000001010000011000000111000010000000100100001010000010110000110000001101000011100000111100010000 H
b010001 X
1]
#270
b00010001 $
0]
#275
b0000000000000000000000000000000000000000000000000000000000000000000000000000000000000000000000000000000000000000000000000000000000000000000000000000000000000000000000000000000000000000000000000000000000000000000000000000000000000000000000000000000000000000000000000000000000000000000000000000000000000000000000000000000000000000000000000000000000000000000000000000000100000010000000110000010000000101000001100000011100001000000010010000101000001011000011000000110100001110000011110001000000010001 H
b010010 X
1]
#280
b00010010 $
0]
#285
b0000000000000000000000000000000000000000000000000000000000000000000000000000000000000000000000000000000000000000000000000000000000000000000000000000000000000000000000000000000000000000000000000000000000000000000000000000000000000000000000000000000000000000000000000000000000000000000000000000000000000000000000000000000000000000000000000000000000000000000000010000001000000011000001000000010100000110000001110000100000001001000010100000101100001100000011010000111000001111000100000001000100010010 H
b010011 X
1]
#290
b00010011 $
0]
#295
b0000000000000000000000000000000000000000000000000000000000000000000000000000000000000000000000000000000000000000000000000000000000000000000000000000000000000000000000000000000000000000000000000000000000000000000000000000000000000000000000000000000000000000000000000000000000000000000000000000000000000000000000000000000000000000000000000000000000000001000000100000001100000100000001010000011000000111000010000000100100001010000010110000110000001101000011100000111100010000000100010001001000010011 H
b010100 X
1]
#300
b00010100 $
0]
#305
b0000000000000000000000000000000000000000000000000000000000000000000000000000000000000000000000000000000000000000000000000000000000000000000000000000000000000000000000000000000000000000000000000000000000000000000000000000000000000000000000000000000000000000000000000000000000000000000000000000000000000000000000000000000000000000000000000000000100000010000000110000010000000101000001100000011100001000000010010000101000001011000011000000110100001110000011110001000000010001000100100001001100010100 H
b010101 X
1]
#310
b00010101 $
0]
#315
b0000000000000000000000000000000000000000000000000000000000000000000000000000000000000000000000000000000000000000000000000000000000000000000000000000000000000000000000000000000000000000000000000000000000000000000000000000000000000000000000000000000000000000000000000000000000000000000000000000000000000000000000000000000000000000000000010000001000000011000001000000010100000110000001110000100000001001000010100000101100001100000011010000111000001111000100000001000100010010000100110001010000010101 H
b010110 X
1]
#320
b00010110 $
0]
#325
b0000000000000000000000000000000000000000000000000000000000000000000000000000000000000000000000000000000000000000000000000000000000000000000000000000000000000000000000000000000000000000000000000000000000000000000000000000000000000000000000000000000000000000000000000000000000000000000000000000000000000000000000000000000000000001000000100000001100000100000001010000011000000111000010000000100100001010000010110000110000001101000011100000111100010000000100010001001000010011000101000001010100010110 H
b010111 X
1]
#330
b00010111 $
0]
#335
b0000000000000000000000000000000000000000000000000000000000000000000000000000000000000000000000000000000000000000000000000000000000000000000000000000000000000000000000000000000000000000000000000000000000000000000000000000000000000000000000000000000000000000000000000000000000000000000000000000000000000000000000000000000100000010000000110000010000000101000001100000011100001000000010010000101000001011000011000000110100001110000011110001000000010001000100100001001100010100000101010001011000010111 H
b011000 X
1]
#340
b00011000 $
0]
#345
b0000000000000000000000000000000000000000000000000000000000000000000000000000000000000000000000000000000000000000000000000000000000000000000000000000000000000000000000000000000000000000000000000000000000000000000000000000000000000000000000000000000000000000000000000000000000000000000000000000000000000000000000010000001000000011000001000000010100000110000001110000100000001001000010100000101100001100000011010000111000001111000100000001000100010010000100110001010000010101000101100001011100011000 H
b011001 X
1]
#350
b00011001 $
0]
#355
b0000000000000000000000000000000000000000000000000000000000000000000000000000000000000000000000000000000000000000000000000000000000000000000000000000000000000000000000000000000000000000000000000000000000000000000000000000000000000000000000000000000000000000000000000000000000000000000000000000000000000001000000100000001100000100000001010000011000000111000010000000100100001010000010110000110000001101000011100000111100010000000100010001001000010011000101000001010100010110000101110001100000011001 H
b011010 X
1]
#360
b00011010 $
0]
#365
b0000000000000000000000000000000000000000000000000000000000000000000000000000000000000000000000000000000000000000000000000000000000000000000000000000000000000000000000000000000000000000000000000000000000000000000000000000000000000000000000000000000000000000000000000000000000000000000000000000000100000010000000110000010000000101000001100000011100001000000010010000101000001011000011000000110100001110000011110001000000010001000100100001001100010100000101010001011000010111000110000001100100011010 H
b011011 X
1]
#370
b00011011 $
0]
#375
b0000000000000000000000000000000000000000000000000000000000000000000000000000000000000000000000000000000000000000000000000000000000000000000000000000000000000000000000000000000000000000000000000000000000000000000000000000000000000000000000000000000000000000000000000000000000000000000000010000001000000011000001000000010100000110000001110000100000001001000010100000101100001100000011010000111000001111000100000001000100010010000100110001010000010101000101100001011100011000000110010001101000011011 H
b011100 X
1]
#380
b00011100 $
0]
#385
b0000000000000000000000000000000000000000000000000000000000000000000000000000000000000000000000000000000000000000000000000000000000000000000000000000000000000000000000000000000000000000000000000000000000000000000000000000000000000000000000000000000000000000000000000000000000000001000000100000001100000100000001010000011000000111000010000000100100001010000010110000110000001101000011100000111100010000000100010001001000010011000101000001010100010110000101110001100000011001000110100001101100011100 H
b011101 X
1]
#390
b00011101 $
0]
#395
b0000000000000000000000000000000000000000000000000000000000000000000000000000000000000000000000000000000000000000000000000000000000000000000000000000000000000000000000000000000000000000000000000000000000000000000000000000000000000000000000000000000000000000000000000000000100000010000000110000010000000101000001100000011100001000000010010000101000001011000011000000110100001110000011110001000000010001000100100001001100010100000101010001011000010111000110000001100100011010000110110001110000011101 H
b011110 X
1]
#400
b00011110 $
0]
#405
b0000000000000000000000000000000000000000000000000000000000000000000000000000000000000000000000000000000000000000000000000000000000000000000000000000000000000000000000000000000000000000000000000000000000000000000000000000000000000000000000000000000000000000000000010000001000000011000001000000010100000110000001110000100000001001000010100000101100001100000011010000111000001111000100000001000100010010000100110001010000010101000101100001011100011000000110010001101000011011000111000001110100011110 H
b011111 X
1]
#410
b00011111 $
0]
#415
b0000000000000000000000000000000000000000000000000000000000000000000000000000000000000000000000000000000000000000000000000000000000000000000000000000000000000000000000000000000000000000000000000000000000000000000000000000000000000000000000000000000000000001000000100000001100000100000001010000011000000111000010000000100100001010000010110000110000001101000011100000111100010000000100010001001000010011000101000001010100010110000101110001100000011001000110100001101100011100000111010001111000011111 H
b100000 X
1]
#420
b00100000 $
0]
#425
b0000000000000000000000000000000000000000000000000000000000000000000000000000000000000000000000000000000000000000000000000000000000000000000000000000000000000000000000000000000000000000000000000000000000000000000000000000000000000000000000000000000100000010000000110000010000000101000001100000011100001000000010010000101000001011000011000000110100001110000011110001000000010001000100100001001100010100000101010001011000010111000110000001100100011010000110110001110000011101000111100001111100100000 H
b100001 X
1]
#430
b00100001 $
0]
#435
b0000000000000000000000000000000000000000000000000000000000000000000000000000000000000000000000000000000000000000000000000000000000000000000000000000000000000000000000000000000000000000000000000000000000000000000000000000000000000000000000010000001000000011000001000000010100000110000001110000100000001001000010100000101100001100000011010000111000001111000100000001000100010010000100110001010000010101000101100001011100011000000110010001101000011011000111000001110100011110000111110010000000100001 H
b100010 X
1]
#440
b00100010 $
0]
#445
b0000000000000000000000000000000000000000000000000000000000000000000000000000000000000000000000000000000000000000000000000000000000000000000000000000000000000000000000000000000000000000000000000000000000000000000000000000000000000001000000100000001100000100000001010000011000000111000010000000100100001010000010110000110000001101000011100000111100010000000100010001001000010011000101000001010100010110000101110001100000011001000110100001101100011100000111010001111000011111001000000010000100100010 H
b100011 X
1]
#450
b00100011 $
0]
#455
b0000000000000000000000000000000000000000000000000000000000000000000000000000000000000000000000000000000000000000000000000000000000000000000000000000000000000000000000000000000000000000000000000000000000000000000000000000000100000010000000110000010000000101000001100000011100001000000010010000101000001011000011000000110100001110000011110001000000010001000100100001001100010100000101010001011000010111000110000001100100011010000110110001110000011101000111100001111100100000001000010010001000100011 H
b100100 X
1]
#460
b00100100 $
0]
#465
b0000000000000000000000000000000000000000000000000000000000000000000000000000000000000000000000000000000000000000000000000000000000000000000000000000000000000000000000000000000000000000000000000000000000000000000000010000001000000011000001000000010100000110000001110000100000001001000010100000101100001100000011010000111000001111000100000001000100010010000100110001010000010101000101100001011100011000000110010001101000011011000111000001110100011110000111110010000000100001001000100010001100100100 H
b100101 X
1]
#470
b00100101 $
0]
#475
b0000000000000000000000000000000000000000000000000000000000000000000000000000000000000000000000000000000000000000000000000000000000000000000000000000000000000000000000000000000000000000000000000000000000000001000000100000001100000100000001010000011000000111000010000000100100001010000010110000110000001101000011100000111100010000000100010001001000010011000101000001010100010110000101110001100000011001000110100001101100011100000111010001111000011111001000000010000100100010001000110010010000100101 H
b100110 X
1]
#480
b00100110 $
0]
#485
b0000000000000000000000000000000000000000000000000000000000000000000000000000000000000000000000000000000000000000000000000000000000000000000000000000000000000000000000000000000000000000000000000000000100000010000000110000010000000101000001100000011100001000000010010000101000001011000011000000110100001110000011110001000000010001000100100001001100010100000101010001011000010111000110000001100100011010000110110001110000011101000111100001111100100000001000010010001000100011001001000010010100100110 H
b100111 X
1]
#490
b00100111 $
0]
#495
b0000000000000000000000000000000000000000000000000000000000000000000000000000000000000000000000000000000000000000000000000000000000000000000000000000000000000000000000000000000000000000000000010000001000000011000001000000010100000110000001110000100000001001000010100000101100001100000011010000111000001111000100000001000100010010000100110001010000010101000101100001011100011000000110010001101000011011000111000001110100011110000111110010000000100001001000100010001100100100001001010010011000100111 H
b101000 X
1]
#500
b00101000 $
0]
#505
b0000000000000000000000000000000000000000000000000000000000000000000000000000000000000000000000000000000000000000000000000000000000000000000000000000000000000000000000000000000000000001000000100000001100000100000001010000011000000111000010000000100100001010000010110000110000001101000011100000111100010000000100010001001000010011000101000001010100010110000101110001100000011001000110100001101100011100000111010001111000011111001000000010000100100010001000110010010000100101001001100010011100101000 H
b101001 X
1]
#510
b00101001 $
0]
#515
b0000000000000000000000000000000000000000000000000000000000000000000000000000000000000000000000000000000000000000000000000000000000000000000000000000000000000000000000000000000100000010000000110000010000000101000001100000011100001000000010010000101000001011000011000000110100001110000011110001000000010001000100100001001100010100000101010001011000010111000110000001100100011010000110110001110000011101000111100001111100100000001000010010001000100011001001000010010100100110001001110010100000101001 H
b101010 X
1]
#520
b00101010 $
0]
#525
b0000000000000000000000000000000000000000000000000000000000000000000000000000000000000000000000000000000000000000000000000000000000000000000000000000000000000000000000010000001000000011000001000000010100000110000001110000100000001001000010100000101100001100000011010000111000001111000100000001000100010010000100110001010000010101000101100001011100011000000110010001101000011011000111000001110100011110000111110010000000100001001000100010001100100100001001010010011000100111001010000010100100101010 H
b101011 X
1]
#530
b00101011 $
0]
#535
b0000000000000000000000000000000000000000000000000000000000000000000000000000000000000000000000000000000000000000000000000000000000000000000000000000000000000001000000100000001100000100000001010000011000000111000010000000100100001010000010110000110000001101000011100000111100010000000100010001001000010011000101000001010100010110000101110001100000011001000110100001101100011100000111010001111000011111001000000010000100100010001000110010010000100101001001100010011100101000001010010010101000101011 H
b101100 X
1]
#540
b00101100 $
0]
#545
b0000000000000000000000000000000000000000000000000000000000000000000000000000000000000000000000000000000000000000000000000000000000000000000000000000000100000010000000110000010000000101000001100000011100001000000010010000101000001011000011000000110100001110000011110001000000010001000100100001001100010100000101010001011000010111000110000001100100011010000110110001110000011101000111100001111100100000001000010010001000100011001001000010010100100110001001110010100000101001001010100010101100101100 H
b101101 X
1]
#550
b00101101 $
0]
#555
b0000000000000000000000000000000000000000000000000000000000000000000000000000000000000000000000000000000000000000000000000000000000000000000000010000001000000011000001000000010100000110000001110000100000001001000010100000101100001100000011010000111000001111000100000001000100010010000100110001010000010101000101100001011100011000000110010001101000011011000111000001110100011110000111110010000000100001001000100010001100100100001001010010011000100111001010000010100100101010001010110010110000101101 H
b101110 X
1]
#560
b00101110 $
0]
#565
b0000000000000000000000000000000000000000000000000000000000000000000000000000000000000000000000000000000000000000000000000000000000000001000000100000001100000100000001010000011000000111000010000000100100001010000010110000110000001101000011100000111100010000000100010001001000010011000101000001010100010110000101110001100000011001000110100001101100011100000111010001111000011111001000000010000100100010001000110010010000100101001001100010011100101000001010010010101000101011001011000010110100101110 H
b101111 X
1]
#570
b00101111 $
0]
#575
b0000000000000000000000000000000000000000000000000000000000000000000000000000000000000000000000000000000000000000000000000000000100000010000000110000010000000101000001100000011100001000000010010000101000001011000011000000110100001110000011110001000000010001000100100001001100010100000101010001011000010111000110000001100100011010000110110001110000011101000111100001111100100000001000010010001000100011001001000010010100100110001001110010100000101001001010100010101100101100001011010010111000101111 H
b110000 X
1]
#580
b00110000 $
0]
#585
b0000000000000000000000000000000000000000000000000000000000000000000000000000000000000000000000000000000000000000000000010000001000000011000001000000010100000110000001110000100000001001000010100000101100001100000011010000111000001111000100000001000100010010000100110001010000010101000101100001011100011000000110010001101000011011000111000001110100011110000111110010000000100001001000100010001100100100001001010010011000100111001010000010100100101010001010110010110000101101001011100010111100110000 H
b110001 X
1]
#590
b00110001 $
0]
#595
b0000000000000000000000000000000000000000000000000000000000000000000000000000000000000000000000000000000000000001000000100000001100000100000001010000011000000111000010000000100100001010000010110000110000001101000011100000111100010000000100010001001000010011000101000001010100010110000101110001100000011001000110100001101100011100000111010001111000011111001000000010000100100010001000110010010000100101001001100010011100101000001010010010101000101011001011000010110100101110001011110011000000110001 H
b110010 X
1]
#600
b00110010 $
0]
#605
b0000000000000000000000000000000000000000000000000000000000000000000000000000000000000000000000000000000100000010000000110000010000000101000001100000011100001000000010010000101000001011000011000000110100001110000011110001000000010001000100100001001100010100000101010001011000010111000110000001100100011010000110110001110000011101000111100001111100100000001000010010001000100011001001000010010100100110001001110010100000101001001010100010101100101100001011010010111000101111001100000011000100110010 H
b110011 X
1]
#610
b00110011 $
0]
#615
b0000000000000000000000000000000000000000000000000000000000000000000000000000000000000000000000010000001000000011000001000000010100000110000001110000100000001001000010100000101100001100000011010000111000001111000100000001000100010010000100110001010000010101000101100001011100011000000110010001101000011011000111000001110100011110000111110010000000100001001000100010001100100100001001010010011000100111001010000010100100101010001010110010110000101101001011100010111100110000001100010011001000110011 H
b110100 X
1]
#620
b00110100 $
0]
#625
b0000000000000000000000000000000000000000000000000000000000000000000000000000000000000001000000100000001100000100000001010000011000000111000010000000100100001010000010110000110000001101000011100000111100010000000100010001001000010011000101000001010100010110000101110001100000011001000110100001101100011100000111010001111000011111001000000010000100100010001000110010010000100101001001100010011100101000001010010010101000101011001011000010110100101110001011110011000000110001001100100011001100110100 H
b110101 X
1]
#630
b00110101 $
0]
#635
b0000000000000000000000000000000000000000000000000000000000000000000000000000000100000010000000110000010000000101000001100000011100001000000010010000101000001011000011000000110100001110000011110001000000010001000100100001001100010100000101010001011000010111000110000001100100011010000110110001110000011101000111100001111100100000001000010010001000100011001001000010010100100110001001110010100000101001001010100010101100101100001011010010111000101111001100000011000100110010001100110011010000110101 H
b110110 X
1]
#640
b00110110 $
0]
#645
b0000000000000000000000000000000000000000000000000000000000000000000000010000001000000011000001000000010100000110000001110000100000001001000010100000101100001100000011010000111000001111000100000001000100010010000100110001010000010101000101100001011100011000000110010001101000011011000111000001110100011110000111110010000000100001001000100010001100100100001001010010011000100111001010000010100100101010001010110010110000101101001011100010111100110000001100010011001000110011001101000011010100110110 H
b110111 X
1]
#650
b00110111 $
0]
#655
b0000000000000000000000000000000000000000000000000000000000000001000000100000001100000100000001010000011000000111000010000000100100001010000010110000110000001101000011100000111100010000000100010001001000010011000101000001010100010110000101110001100000011001000110100001101100011100000111010001111000011111001000000010000100100010001000110010010000100101001001100010011100101000001010010010101000101011001011000010110100101110001011110011000000110001001100100011001100110100001101010011011000110111 H
b111000 X
1]
#660
b00111000 $
0]
#665
b0000000000000000000000000000000000000000000000000000000100000010000000110000010000000101000001100000011100001000000010010000101000001011000011000000110100001110000011110001000000010001000100100001001100010100000101010001011000010111000110000001100100011010000110110001110000011101000111100001111100100000001000010010001000100011001001000010010100100110001001110010100000101001001010100010101100101100001011010010111000101111001100000011000100110010001100110011010000110101001101100011011100111000 H
b111001 X
1]
#670
b00111001 $
0]
#675
b0000000000000000000000000000000000000000000000010000001000000011000001000000010100000110000001110000100000001001000010100000101100001100000011010000111000001111000100000001000100010010000100110001010000010101000101100001011100011000000110010001101000011011000111000001110100011110000111110010000000100001001000100010001100100100001001010010011000100111001010000010100100101010001010110010110000101101001011100010111100110000001100010011001000110011001101000011010100110110001101110011100000111001 H
b111010 X
1]
#680
b00111010 $
0]
#685
b0000000000000000000000000000000000000001000000100000001100000100000001010000011000000111000010000000100100001010000010110000110000001101000011100000111100010000000100010001001000010011000101000001010100010110000101110001100000011001000110100001101100011100000111010001111000011111001000000010000100100010001000110010010000100101001001100010011100101000001010010010101000101011001011000010110100101110001011110011000000110001001100100011001100110100001101010011011000110111001110000011100100111010 H
b111011 X
1]
#690
b00111011 $
0]
#695
b0000000000000000000000000000000100000010000000110000010000000101000001100000011100001000000010010000101000001011000011000000110100001110000011110001000000010001000100100001001100010100000101010001011000010111000110000001100100011010000110110001110000011101000111100001111100100000001000010010001000100011001001000010010100100110001001110010100000101001001010100010101100101100001011010010111000101111001100000011000100110010001100110011010000110101001101100011011100111000001110010011101000111011 H
b111100 X
1]
#700
b00111100 $
0]
#705
b0000000000000000000000010000001000000011000001000000010100000110000001110000100000001001000010100000101100001100000011010000111000001111000100000001000100010010000100110001010000010101000101100001011100011000000110010001101000011011000111000001110100011110000111110010000000100001001000100010001100100100001001010010011000100111001010000010100100101010001010110010110000101101001011100010111100110000001100010011001000110011001101000011010100110110001101110011100000111001001110100011101100111100 H
b111101 X
1]
b11 ^
#710
b00111101 $
0]
#715
b11 F
b0000000000000001000000100000001100000100000001010000011000000111000010000000100100001010000010110000110000001101000011100000111100010000000100010001001000010011000101000001010100010110000101110001100000011001000110100001101100011100000111010001111000011111001000000010000100100010001000110010010000100101001001100010011100101000001010010010101000101011001011000010110100101110001011110011000000110001001100100011001100110100001101010011011000110111001110000011100100111010001110110011110000111101 H
b111110 X
1]
b01 ^
#720
b00111110 $
0]
#725
1)
1-
b00000000000000010000001000000011000001000000010100000110000001110000100000001001000010100000101100001100000011010000111000001111000100000001000100010010000100110001010000010101000101100001011100011000000110010001101000011011000111000001110100011110000111110010000000100001001000100010001100100100001001010010011000100111001010000010100100101010001010110010110000101101001011100010111100110000001100010011001000110011001101000011010100110110001101110011100000111001001110100011101100111100001111010000000000000000 /
1C
0E
b01 F
b0000000000010000 G
b0000000000000000000000000000000000000000000000000000000000000000000000000000000000000000000000000000000000000000000000000000000000000000000000000000000000000000000000000000000000000000000000000000000000000000000000000000000000000000000000000000000000000000000000000000000000000000000000000000000000000000000000000000000000000000000000000000000000000000000000000000000000000000000000000000000000000000000000000000000000000000000000000000000000000000000000000000000000000000000000000000000000111110 H
b000001 X
b000000000001 Y
b000000000001 \
1]
#730
b00111111 $
0]
#735
0)
1*
b000000000010 +
0-
b00000000000000000000000000000000000000000000000000000000000000000000000000000000000000000000000000000000000000000000000000000000000000000000000000000000000000000000000000000000000000000000000000000000000000000000000000000000000000000000000000000000000000000000000000000000000000000000000000000000000000000000000000000000000000000000000000000000000000000000000000000000000000000000000000000000000000000000000000000000000000000000000000000000000000000000000000000000000000000000000000000000000000000000000000000000 /
b00000000000000000000000000000001 @
b000000000011 A
0C
b0000000000000000000000000000000000000000000000000000000000000000000000000000000000000000000000000000000000000000000000000000000000000000000000000000000000000000000000000000000000000000000000000000000000000000000000000000000000000000000000000000000000000000000000000000000000000000000000000000000000000000000000000000000000000000000000000000000000000000000000000000000000000000000000000000000000000000000000000000000000000000000000000000000000000000000000000000000000000000000000000011111000111111 H
b000010 X
1]
#740
b01000000 $
0]
