memory_read_ctrl_tb.vcd
$version Generated by VerilatedVcd $end
$timescale 1ps $end
 $scope module mem_pkg $end
  $var wire 32 w BLOCK_BYTES [31:0] $end
  $var wire 32 x NUM_BLOCKS [31:0] $end
  $var wire 32 y DATA_WIDTH [31:0] $end
  $var wire 32 z ADDR_W [31:0] $end
  $var wire 32 { FOOTER_BYTES [31:0] $end
  $var wire 32 | PAYLOAD_BYTES [31:0] $end
  $var wire 32 } BLOCK_BITS [31:0] $end
 $upscope $end
 $scope module tb_memory_read_ctrl $end
  $var wire 32 u NUM_CHAIN_BLOCKS [31:0] $end
  $var wire 32 v FOOTER_BITS [31:0] $end
  $var wire 1 q clk $end
  $var wire 1 # rst_n $end
  $var wire 1 $ re_i $end
  $var wire 1 % start $end
  $var wire 12 & start_addr_i [11:0] $end
  $var wire 1 $ mem_re_o $end
  $var wire 12 r mem_raddr_o [11:0] $end
  $var wire 1 L mem_rvalid_i $end
  $var wire 512 a mem_rdata_i [511:0] $end
  $var wire 512 M data_o [511:0] $end
  $var wire 1 ] data_valid_o $end
  $var wire 1 ^ data_end_o $end
  $var wire 1 ' mem_we_prog $end
  $var wire 1 ( mem_re_prog $end
  $var wire 12 ) mem_addr_prog [11:0] $end
  $var wire 512 * mem_wdata_prog [511:0] $end
  $var wire 1 : mem_we_mux $end
  $var wire 1 s mem_re_mux $end
  $var wire 12 t mem_addr_mux [11:0] $end
  $var wire 512 * mem_wdata_mux [511:0] $end
  $var wire 512 a mem_rdata [511:0] $end
  $var wire 1 L mem_rvalid_pipe $end
  $var wire 12 ; chain[0] [11:0] $end
  $var wire 12 < chain[1] [11:0] $end
  $var wire 12 = chain[2] [11:0] $end
  $var wire 12 > chain[3] [11:0] $end
  $var wire 12 ? chain[4] [11:0] $end
  $var wire 12 @ chain[5] [11:0] $end
  $var wire 12 A chain[6] [11:0] $end
  $var wire 12 B chain[7] [11:0] $end
  $var wire 12 C chain[8] [11:0] $end
  $var wire 12 D chain[9] [11:0] $end
  $var wire 1 E program_mode $end
  $var wire 32 F blocks_seen [31:0] $end
  $scope module dut $end
   $var wire 1 q clk $end
   $var wire 1 # rst_n $end
   $var wire 1 $ re_i $end
   $var wire 1 % start $end
   $var wire 12 & start_addr_i [11:0] $end
   $var wire 1 $ mem_re_o $end
   $var wire 12 r mem_raddr_o [11:0] $end
   $var wire 1 L mem_rvalid_i $end
   $var wire 512 a mem_rdata_i [511:0] $end
   $var wire 512 M data_o [511:0] $end
   $var wire 1 ] data_valid_o $end
   $var wire 1 ^ data_end_o $end
   $var wire 16 _ footer [15:0] $end
   $var wire 512 M mem_rdata [511:0] $end
   $var wire 1 ] mem_rvalid $end
   $var wire 3 ` rsvd_unused [2:0] $end
  $upscope $end
  $scope module u_mem $end
   $var wire 1 q clk $end
   $var wire 1 : we $end
   $var wire 1 s re $end
   $var wire 12 t addr [11:0] $end
   $var wire 512 * wdata [511:0] $end
   $var wire 512 a rdata [511:0] $end
  $upscope $end
  $scope module unnamedblk1 $end
   $var wire 32 G i [31:0] $end
   $var wire 32 H max_cycles [31:0] $end
   $var wire 32 I cycle_count [31:0] $end
   $scope module unnamedblk2 $end
    $var wire 16 J f [15:0] $end
    $var wire 16 K footer_bits [15:0] $end
   $upscope $end
  $upscope $end
 $upscope $end
$enddefinitions $end


#0
0#
0$
0%
b000000000000 &
0'
0(
b000000000000 )
b00000000000000000000000000000000000000000000000000000000000000000000000000000000000000000000000000000000000000000000000000000000000000000000000000000000000000000000000000000000000000000000000000000000000000000000000000000000000000000000000000000000000000000000000000000000000000000000000000000000000000000000000000000000000000000000000000000000000000000000000000000000000000000000000000000000000000000000000000000000000000000000000000000000000000000000000000000000000000000000000000000000000000000000000000000000 *
0:
b000000100101 ;
b001110001001 <
b000010000000 =
b011111111111 >
b000100111111 ?
b111111111101 @
b001100001001 A
b101000000000 B
b010011010010 C
b101110111001 D
1E
b00000000000000000000000000000000 F
b00000000000000000000000000000000 G
b00000000000000000000000000000000 H
b00000000000000000000000000000000 I
b0000000000000000 J
b0000000000000000 K
0L
b00000000000000000000000000000000000000000000000000000000000000000000000000000000000000000000000000000000000000000000000000000000000000000000000000000000000000000000000000000000000000000000000000000000000000000000000000000000000000000000000000000000000000000000000000000000000000000000000000000000000000000000000000000000000000000000000000000000000000000000000000000000000000000000000000000000000000000000000000000000000000000000000000000000000000000000000000000000000000000000000000000000000000000000000000000000 M
0]
0^
b0000000000000000 _
b000 `
b00000000000000000000000000000000000000000000000000000000000000000000000000000000000000000000000000000000000000000000000000000000000000000000000000000000000000000000000000000000000000000000000000000000000000000000000000000000000000000000000000000000000000000000000000000000000000000000000000000000000000000000000000000000000000000000000000000000000000000000000000000000000000000000000000000000000000000000000000000000000000000000000000000000000000000000000000000000000000000000000000000000000000000000000000000000 a
0q
b000000000000 r
0s
b000000000000 t
b00000000000000000000000000001010 u
b00000000000000000000000000010000 v
b00000000000000000000000001000000 w
b00000000000000000001000000000000 x
b00000000000000000000000000001000 y
b00000000000000000000000000001100 z
b00000000000000000000000000000010 {
b00000000000000000000000000111110 |
b00000000000000000000001000000000 }
#5
1q
#10
0q
#15
1q
#20
0q
#25
1q
#30
0q
#35
1q
#40
0q
#45
1#
1q
#50
0q
#55
1'
b000000100101 )
b00000000000000000000000000000000000000000000000000000000000000000000000000000000000000000000000000000000000000000000000000000000000000000000000000000000000000000000000000000000000000000000000000000000000000000000000000000000000000000000000000000000000000000000000000000000000000000000000000000000000000000000000000000000000000000000000000000000000000000000000000000000000000000000000000000000000000000000000000000000000000000000000000000000000000000000000000000000000000000000000000000000000000000011100010010000 *
1:
b0011100010010000 J
b0011100010010000 K
1q
b000000100101 t
#60
0q
#65
b001110001001 )
b00000000000000000000000000000000000000000000000000000000000000000000000000000000000000000000000000000000000000000000000000000000000000000000000000000000000000000000000000000000000000000000000000000000000000000000000000000000000000000000000000000000000000000000000000000000000000000000000000000000000000000000000000000000000000000000000000000000000000000000000000000000000000000000000000000000000000000000000000000000000000000000000000000000000000000000000000000000000000000000000000000000000000000000100000000000 *
b00000000000000000000000000000001 G
b0000100000000000 J
b0000100000000000 K
1q
b001110001001 t
#70
0q
#75
b000010000000 )
b00000000000000000000000000000000000000000000000000000000000000000000000000000000000000000000000000000000000000000000000000000000000000000000000000000000000000000000000000000000000000000000000000000000000000000000000000000000000000000000000000000000000000000000000000000000000000000000000000000000000000000000000000000000000000000000000000000000000000000000000000000000000000000000000000000000000000000000000000000000000000000000000000000000000000000000000000000000000000000000000000000000000000000111111111110000 *
b00000000000000000000000000000010 G
b0111111111110000 J
b0111111111110000 K
1q
b000010000000 t
#80
0q
#85
b011111111111 )
b00000000000000000000000000000000000000000000000000000000000000000000000000000000000000000000000000000000000000000000000000000000000000000000000000000000000000000000000000000000000000000000000000000000000000000000000000000000000000000000000000000000000000000000000000000000000000000000000000000000000000000000000000000000000000000000000000000000000000000000000000000000000000000000000000000000000000000000000000000000000000000000000000000000000000000000000000000000000000000000000000000000000000000001001111110000 *
b00000000000000000000000000000011 G
b0001001111110000 J
b0001001111110000 K
1q
b011111111111 t
#90
0q
#95
b000100111111 )
b00000000000000000000000000000000000000000000000000000000000000000000000000000000000000000000000000000000000000000000000000000000000000000000000000000000000000000000000000000000000000000000000000000000000000000000000000000000000000000000000000000000000000000000000000000000000000000000000000000000000000000000000000000000000000000000000000000000000000000000000000000000000000000000000000000000000000000000000000000000000000000000000000000000000000000000000000000000000000000000000000000000000000001111111111010000 *
b00000000000000000000000000000100 G
b1111111111010000 J
b1111111111010000 K
1q
b000100111111 t
#100
0q
#105
b111111111101 )
b00000000000000000000000000000000000000000000000000000000000000000000000000000000000000000000000000000000000000000000000000000000000000000000000000000000000000000000000000000000000000000000000000000000000000000000000000000000000000000000000000000000000000000000000000000000000000000000000000000000000000000000000000000000000000000000000000000000000000000000000000000000000000000000000000000000000000000000000000000000000000000000000000000000000000000000000000000000000000000000000000000000000000000011000010010000 *
b00000000000000000000000000000101 G
b0011000010010000 J
b0011000010010000 K
1q
b111111111101 t
#110
0q
#115
b001100001001 )
b00000000000000000000000000000000000000000000000000000000000000000000000000000000000000000000000000000000000000000000000000000000000000000000000000000000000000000000000000000000000000000000000000000000000000000000000000000000000000000000000000000000000000000000000000000000000000000000000000000000000000000000000000000000000000000000000000000000000000000000000000000000000000000000000000000000000000000000000000000000000000000000000000000000000000000000000000000000000000000000000000000000000000001010000000000000 *
b00000000000000000000000000000110 G
b1010000000000000 J
b1010000000000000 K
1q
b001100001001 t
#120
0q
#125
b101000000000 )
b00000000000000000000000000000000000000000000000000000000000000000000000000000000000000000000000000000000000000000000000000000000000000000000000000000000000000000000000000000000000000000000000000000000000000000000000000000000000000000000000000000000000000000000000000000000000000000000000000000000000000000000000000000000000000000000000000000000000000000000000000000000000000000000000000000000000000000000000000000000000000000000000000000000000000000000000000000000000000000000000000000000000000000100110100100000 *
b00000000000000000000000000000111 G
b0100110100100000 J
b0100110100100000 K
1q
b101000000000 t
#130
0q
#135
b010011010010 )
b00000000000000000000000000000000000000000000000000000000000000000000000000000000000000000000000000000000000000000000000000000000000000000000000000000000000000000000000000000000000000000000000000000000000000000000000000000000000000000000000000000000000000000000000000000000000000000000000000000000000000000000000000000000000000000000000000000000000000000000000000000000000000000000000000000000000000000000000000000000000000000000000000000000000000000000000000000000000000000000000000000000000000001011101110010000 *
b00000000000000000000000000001000 G
b1011101110010000 J
b1011101110010000 K
1q
b010011010010 t
#140
0q
#145
b101110111001 )
b00000000000000000000000000000000000000000000000000000000000000000000000000000000000000000000000000000000000000000000000000000000000000000000000000000000000000000000000000000000000000000000000000000000000000000000000000000000000000000000000000000000000000000000000000000000000000000000000000000000000000000000000000000000000000000000000000000000000000000000000000000000000000000000000000000000000000000000000000000000000000000000000000000000000000000000000000000000000000000000000000000000000000000000000000001000 *
b00000000000000000000000000001001 G
b0000000000001000 J
b0000000000001000 K
1q
b101110111001 t
#150
0q
#155
0'
b000000000000 )
b00000000000000000000000000000000000000000000000000000000000000000000000000000000000000000000000000000000000000000000000000000000000000000000000000000000000000000000000000000000000000000000000000000000000000000000000000000000000000000000000000000000000000000000000000000000000000000000000000000000000000000000000000000000000000000000000000000000000000000000000000000000000000000000000000000000000000000000000000000000000000000000000000000000000000000000000000000000000000000000000000000000000000000000000000000000 *
0:
b00000000000000000000000000001010 G
1q
b000000000000 t
#160
0q
#165
1q
#170
0q
#175
1q
#180
0q
#185
1$
1%
b000000100101 &
0E
1L
b00000000000000000000000000000000000000000000000000000000000000000000000000000000000000000000000000000000000000000000000000000000000000000000000000000000000000000000000000000000000000000000000000000000000000000000000000000000000000000000000000000000000000000000000000000000000000000000000000000000000000000000000000000000000000000000000000000000000000000000000000000000000000000000000000000000000000000000000000000000000000000000000000000000000000000000000000000000000000000000000000000000000000000011100010010000 a
1q
b000000100101 r
1s
b000000100101 t
#190
0q
#195
0%
b00000000000000000000000011001000 H
b00000000000000000000000000000000000000000000000000000000000000000000000000000000000000000000000000000000000000000000000000000000000000000000000000000000000000000000000000000000000000000000000000000000000000000000000000000000000000000000000000000000000000000000000000000000000000000000000000000000000000000000000000000000000000000000000000000000000000000000000000000000000000000000000000000000000000000000000000000000000000000000000000000000000000000000000000000000000000000000000000000000000000000011100010010000 M
1]
b0011100010010000 _
b00000000000000000000000000000000000000000000000000000000000000000000000000000000000000000000000000000000000000000000000000000000000000000000000000000000000000000000000000000000000000000000000000000000000000000000000000000000000000000000000000000000000000000000000000000000000000000000000000000000000000000000000000000000000000000000000000000000000000000000000000000000000000000000000000000000000000000000000000000000000000000000000000000000000000000000000000000000000000000000000000000000000000000000000000000000 a
1q
b001110001001 r
b001110001001 t
#200
0q
#205
b00000000000000000000000000000001 I
b00000000000000000000000000000000000000000000000000000000000000000000000000000000000000000000000000000000000000000000000000000000000000000000000000000000000000000000000000000000000000000000000000000000000000000000000000000000000000000000000000000000000000000000000000000000000000000000000000000000000000000000000000000000000000000000000000000000000000000000000000000000000000000000000000000000000000000000000000000000000000000000000000000000000000000000000000000000000000000000000000000000000000000000000000000000 M
b0000000000000000 _
b00000000000000000000000000000000000000000000000000000000000000000000000000000000000000000000000000000000000000000000000000000000000000000000000000000000000000000000000000000000000000000000000000000000000000000000000000000000000000000000000000000000000000000000000000000000000000000000000000000000000000000000000000000000000000000000000000000000000000000000000000000000000000000000000000000000000000000000000000000000000000000000000000000000000000000000000000000000000000000000000000000000000000000000100000000000 a
1q
b000000000000 r
b000000000000 t
#210
0q
#215
b00000000000000000000000000000010 I
b00000000000000000000000000000000000000000000000000000000000000000000000000000000000000000000000000000000000000000000000000000000000000000000000000000000000000000000000000000000000000000000000000000000000000000000000000000000000000000000000000000000000000000000000000000000000000000000000000000000000000000000000000000000000000000000000000000000000000000000000000000000000000000000000000000000000000000000000000000000000000000000000000000000000000000000000000000000000000000000000000000000000000000000100000000000 M
b0000100000000000 _
b00000000000000000000000000000000000000000000000000000000000000000000000000000000000000000000000000000000000000000000000000000000000000000000000000000000000000000000000000000000000000000000000000000000000000000000000000000000000000000000000000000000000000000000000000000000000000000000000000000000000000000000000000000000000000000000000000000000000000000000000000000000000000000000000000000000000000000000000000000000000000000000000000000000000000000000000000000000000000000000000000000000000000000000000000000000 a
1q
b000010000000 r
b000010000000 t
#220
0q
#225
b00000000000000000000000000000011 I
b00000000000000000000000000000000000000000000000000000000000000000000000000000000000000000000000000000000000000000000000000000000000000000000000000000000000000000000000000000000000000000000000000000000000000000000000000000000000000000000000000000000000000000000000000000000000000000000000000000000000000000000000000000000000000000000000000000000000000000000000000000000000000000000000000000000000000000000000000000000000000000000000000000000000000000000000000000000000000000000000000000000000000000000000000000000 M
b0000000000000000 _
b00000000000000000000000000000000000000000000000000000000000000000000000000000000000000000000000000000000000000000000000000000000000000000000000000000000000000000000000000000000000000000000000000000000000000000000000000000000000000000000000000000000000000000000000000000000000000000000000000000000000000000000000000000000000000000000000000000000000000000000000000000000000000000000000000000000000000000000000000000000000000000000000000000000000000000000000000000000000000000000000000000000000000000111111111110000 a
1q
b000000000000 r
b000000000000 t
#230
0q
#235
b00000000000000000000000000000100 I
b00000000000000000000000000000000000000000000000000000000000000000000000000000000000000000000000000000000000000000000000000000000000000000000000000000000000000000000000000000000000000000000000000000000000000000000000000000000000000000000000000000000000000000000000000000000000000000000000000000000000000000000000000000000000000000000000000000000000000000000000000000000000000000000000000000000000000000000000000000000000000000000000000000000000000000000000000000000000000000000000000000000000000000111111111110000 M
b0111111111110000 _
b00000000000000000000000000000000000000000000000000000000000000000000000000000000000000000000000000000000000000000000000000000000000000000000000000000000000000000000000000000000000000000000000000000000000000000000000000000000000000000000000000000000000000000000000000000000000000000000000000000000000000000000000000000000000000000000000000000000000000000000000000000000000000000000000000000000000000000000000000000000000000000000000000000000000000000000000000000000000000000000000000000000000000000000000000000000 a
1q
b011111111111 r
b011111111111 t
#240
0q
#245
b00000000000000000000000000000101 I
b00000000000000000000000000000000000000000000000000000000000000000000000000000000000000000000000000000000000000000000000000000000000000000000000000000000000000000000000000000000000000000000000000000000000000000000000000000000000000000000000000000000000000000000000000000000000000000000000000000000000000000000000000000000000000000000000000000000000000000000000000000000000000000000000000000000000000000000000000000000000000000000000000000000000000000000000000000000000000000000000000000000000000000000000000000000 M
b0000000000000000 _
b00000000000000000000000000000000000000000000000000000000000000000000000000000000000000000000000000000000000000000000000000000000000000000000000000000000000000000000000000000000000000000000000000000000000000000000000000000000000000000000000000000000000000000000000000000000000000000000000000000000000000000000000000000000000000000000000000000000000000000000000000000000000000000000000000000000000000000000000000000000000000000000000000000000000000000000000000000000000000000000000000000000000000000001001111110000 a
1q
b000000000000 r
b000000000000 t
#250
0q
#255
b00000000000000000000000000000110 I
b00000000000000000000000000000000000000000000000000000000000000000000000000000000000000000000000000000000000000000000000000000000000000000000000000000000000000000000000000000000000000000000000000000000000000000000000000000000000000000000000000000000000000000000000000000000000000000000000000000000000000000000000000000000000000000000000000000000000000000000000000000000000000000000000000000000000000000000000000000000000000000000000000000000000000000000000000000000000000000000000000000000000000000001001111110000 M
b0001001111110000 _
b00000000000000000000000000000000000000000000000000000000000000000000000000000000000000000000000000000000000000000000000000000000000000000000000000000000000000000000000000000000000000000000000000000000000000000000000000000000000000000000000000000000000000000000000000000000000000000000000000000000000000000000000000000000000000000000000000000000000000000000000000000000000000000000000000000000000000000000000000000000000000000000000000000000000000000000000000000000000000000000000000000000000000000000000000000000 a
1q
b000100111111 r
b000100111111 t
#260
0q
#265
b00000000000000000000000000000111 I
b00000000000000000000000000000000000000000000000000000000000000000000000000000000000000000000000000000000000000000000000000000000000000000000000000000000000000000000000000000000000000000000000000000000000000000000000000000000000000000000000000000000000000000000000000000000000000000000000000000000000000000000000000000000000000000000000000000000000000000000000000000000000000000000000000000000000000000000000000000000000000000000000000000000000000000000000000000000000000000000000000000000000000000000000000000000 M
b0000000000000000 _
b00000000000000000000000000000000000000000000000000000000000000000000000000000000000000000000000000000000000000000000000000000000000000000000000000000000000000000000000000000000000000000000000000000000000000000000000000000000000000000000000000000000000000000000000000000000000000000000000000000000000000000000000000000000000000000000000000000000000000000000000000000000000000000000000000000000000000000000000000000000000000000000000000000000000000000000000000000000000000000000000000000000000000001111111111010000 a
1q
b000000000000 r
b000000000000 t
#270
0q
#275
b00000000000000000000000000001000 I
b00000000000000000000000000000000000000000000000000000000000000000000000000000000000000000000000000000000000000000000000000000000000000000000000000000000000000000000000000000000000000000000000000000000000000000000000000000000000000000000000000000000000000000000000000000000000000000000000000000000000000000000000000000000000000000000000000000000000000000000000000000000000000000000000000000000000000000000000000000000000000000000000000000000000000000000000000000000000000000000000000000000000000001111111111010000 M
b1111111111010000 _
b00000000000000000000000000000000000000000000000000000000000000000000000000000000000000000000000000000000000000000000000000000000000000000000000000000000000000000000000000000000000000000000000000000000000000000000000000000000000000000000000000000000000000000000000000000000000000000000000000000000000000000000000000000000000000000000000000000000000000000000000000000000000000000000000000000000000000000000000000000000000000000000000000000000000000000000000000000000000000000000000000000000000000000000000000000000 a
1q
b111111111101 r
b111111111101 t
#280
0q
#285
b00000000000000000000000000001001 I
b00000000000000000000000000000000000000000000000000000000000000000000000000000000000000000000000000000000000000000000000000000000000000000000000000000000000000000000000000000000000000000000000000000000000000000000000000000000000000000000000000000000000000000000000000000000000000000000000000000000000000000000000000000000000000000000000000000000000000000000000000000000000000000000000000000000000000000000000000000000000000000000000000000000000000000000000000000000000000000000000000000000000000000000000000000000 M
b0000000000000000 _
b00000000000000000000000000000000000000000000000000000000000000000000000000000000000000000000000000000000000000000000000000000000000000000000000000000000000000000000000000000000000000000000000000000000000000000000000000000000000000000000000000000000000000000000000000000000000000000000000000000000000000000000000000000000000000000000000000000000000000000000000000000000000000000000000000000000000000000000000000000000000000000000000000000000000000000000000000000000000000000000000000000000000000000011000010010000 a
1q
b000000000000 r
b000000000000 t
#290
0q
#295
b00000000000000000000000000001010 I
b00000000000000000000000000000000000000000000000000000000000000000000000000000000000000000000000000000000000000000000000000000000000000000000000000000000000000000000000000000000000000000000000000000000000000000000000000000000000000000000000000000000000000000000000000000000000000000000000000000000000000000000000000000000000000000000000000000000000000000000000000000000000000000000000000000000000000000000000000000000000000000000000000000000000000000000000000000000000000000000000000000000000000000011000010010000 M
b0011000010010000 _
b00000000000000000000000000000000000000000000000000000000000000000000000000000000000000000000000000000000000000000000000000000000000000000000000000000000000000000000000000000000000000000000000000000000000000000000000000000000000000000000000000000000000000000000000000000000000000000000000000000000000000000000000000000000000000000000000000000000000000000000000000000000000000000000000000000000000000000000000000000000000000000000000000000000000000000000000000000000000000000000000000000000000000000000000000000000 a
1q
b001100001001 r
b001100001001 t
#300
0q
#305
b00000000000000000000000000001011 I
b00000000000000000000000000000000000000000000000000000000000000000000000000000000000000000000000000000000000000000000000000000000000000000000000000000000000000000000000000000000000000000000000000000000000000000000000000000000000000000000000000000000000000000000000000000000000000000000000000000000000000000000000000000000000000000000000000000000000000000000000000000000000000000000000000000000000000000000000000000000000000000000000000000000000000000000000000000000000000000000000000000000000000000000000000000000 M
b0000000000000000 _
b00000000000000000000000000000000000000000000000000000000000000000000000000000000000000000000000000000000000000000000000000000000000000000000000000000000000000000000000000000000000000000000000000000000000000000000000000000000000000000000000000000000000000000000000000000000000000000000000000000000000000000000000000000000000000000000000000000000000000000000000000000000000000000000000000000000000000000000000000000000000000000000000000000000000000000000000000000000000000000000000000000000000000001010000000000000 a
1q
b000000000000 r
b000000000000 t
#310
0q
#315
b00000000000000000000000000001100 I
b00000000000000000000000000000000000000000000000000000000000000000000000000000000000000000000000000000000000000000000000000000000000000000000000000000000000000000000000000000000000000000000000000000000000000000000000000000000000000000000000000000000000000000000000000000000000000000000000000000000000000000000000000000000000000000000000000000000000000000000000000000000000000000000000000000000000000000000000000000000000000000000000000000000000000000000000000000000000000000000000000000000000000001010000000000000 M
b1010000000000000 _
b00000000000000000000000000000000000000000000000000000000000000000000000000000000000000000000000000000000000000000000000000000000000000000000000000000000000000000000000000000000000000000000000000000000000000000000000000000000000000000000000000000000000000000000000000000000000000000000000000000000000000000000000000000000000000000000000000000000000000000000000000000000000000000000000000000000000000000000000000000000000000000000000000000000000000000000000000000000000000000000000000000000000000000000000000000000 a
1q
b101000000000 r
b101000000000 t
#320
0q
#325
b00000000000000000000000000001101 I
b00000000000000000000000000000000000000000000000000000000000000000000000000000000000000000000000000000000000000000000000000000000000000000000000000000000000000000000000000000000000000000000000000000000000000000000000000000000000000000000000000000000000000000000000000000000000000000000000000000000000000000000000000000000000000000000000000000000000000000000000000000000000000000000000000000000000000000000000000000000000000000000000000000000000000000000000000000000000000000000000000000000000000000000000000000000 M
b0000000000000000 _
b00000000000000000000000000000000000000000000000000000000000000000000000000000000000000000000000000000000000000000000000000000000000000000000000000000000000000000000000000000000000000000000000000000000000000000000000000000000000000000000000000000000000000000000000000000000000000000000000000000000000000000000000000000000000000000000000000000000000000000000000000000000000000000000000000000000000000000000000000000000000000000000000000000000000000000000000000000000000000000000000000000000000000000100110100100000 a
1q
b000000000000 r
b000000000000 t
#330
0q
#335
b00000000000000000000000000001110 I
b00000000000000000000000000000000000000000000000000000000000000000000000000000000000000000000000000000000000000000000000000000000000000000000000000000000000000000000000000000000000000000000000000000000000000000000000000000000000000000000000000000000000000000000000000000000000000000000000000000000000000000000000000000000000000000000000000000000000000000000000000000000000000000000000000000000000000000000000000000000000000000000000000000000000000000000000000000000000000000000000000000000000000000100110100100000 M
b0100110100100000 _
b00000000000000000000000000000000000000000000000000000000000000000000000000000000000000000000000000000000000000000000000000000000000000000000000000000000000000000000000000000000000000000000000000000000000000000000000000000000000000000000000000000000000000000000000000000000000000000000000000000000000000000000000000000000000000000000000000000000000000000000000000000000000000000000000000000000000000000000000000000000000000000000000000000000000000000000000000000000000000000000000000000000000000000000000000000000 a
1q
b010011010010 r
b010011010010 t
#340
0q
#345
b00000000000000000000000000001111 I
b00000000000000000000000000000000000000000000000000000000000000000000000000000000000000000000000000000000000000000000000000000000000000000000000000000000000000000000000000000000000000000000000000000000000000000000000000000000000000000000000000000000000000000000000000000000000000000000000000000000000000000000000000000000000000000000000000000000000000000000000000000000000000000000000000000000000000000000000000000000000000000000000000000000000000000000000000000000000000000000000000000000000000000000000000000000 M
b0000000000000000 _
b00000000000000000000000000000000000000000000000000000000000000000000000000000000000000000000000000000000000000000000000000000000000000000000000000000000000000000000000000000000000000000000000000000000000000000000000000000000000000000000000000000000000000000000000000000000000000000000000000000000000000000000000000000000000000000000000000000000000000000000000000000000000000000000000000000000000000000000000000000000000000000000000000000000000000000000000000000000000000000000000000000000000000001011101110010000 a
1q
b000000000000 r
b000000000000 t
#350
0q
#355
b00000000000000000000000000010000 I
b00000000000000000000000000000000000000000000000000000000000000000000000000000000000000000000000000000000000000000000000000000000000000000000000000000000000000000000000000000000000000000000000000000000000000000000000000000000000000000000000000000000000000000000000000000000000000000000000000000000000000000000000000000000000000000000000000000000000000000000000000000000000000000000000000000000000000000000000000000000000000000000000000000000000000000000000000000000000000000000000000000000000000001011101110010000 M
b1011101110010000 _
b00000000000000000000000000000000000000000000000000000000000000000000000000000000000000000000000000000000000000000000000000000000000000000000000000000000000000000000000000000000000000000000000000000000000000000000000000000000000000000000000000000000000000000000000000000000000000000000000000000000000000000000000000000000000000000000000000000000000000000000000000000000000000000000000000000000000000000000000000000000000000000000000000000000000000000000000000000000000000000000000000000000000000000000000000000000 a
1q
b101110111001 r
b101110111001 t
#360
0q
#365
b00000000000000000000000000010001 I
b00000000000000000000000000000000000000000000000000000000000000000000000000000000000000000000000000000000000000000000000000000000000000000000000000000000000000000000000000000000000000000000000000000000000000000000000000000000000000000000000000000000000000000000000000000000000000000000000000000000000000000000000000000000000000000000000000000000000000000000000000000000000000000000000000000000000000000000000000000000000000000000000000000000000000000000000000000000000000000000000000000000000000000000000000000000 M
b0000000000000000 _
b00000000000000000000000000000000000000000000000000000000000000000000000000000000000000000000000000000000000000000000000000000000000000000000000000000000000000000000000000000000000000000000000000000000000000000000000000000000000000000000000000000000000000000000000000000000000000000000000000000000000000000000000000000000000000000000000000000000000000000000000000000000000000000000000000000000000000000000000000000000000000000000000000000000000000000000000000000000000000000000000000000000000000000000000000001000 a
1q
b000000000000 r
b000000000000 t
#370
0q
#375
b00000000000000000000000000010010 I
b00000000000000000000000000000000000000000000000000000000000000000000000000000000000000000000000000000000000000000000000000000000000000000000000000000000000000000000000000000000000000000000000000000000000000000000000000000000000000000000000000000000000000000000000000000000000000000000000000000000000000000000000000000000000000000000000000000000000000000000000000000000000000000000000000000000000000000000000000000000000000000000000000000000000000000000000000000000000000000000000000000000000000000000000000001000 M
1^
b0000000000001000 _
b00000000000000000000000000000000000000000000000000000000000000000000000000000000000000000000000000000000000000000000000000000000000000000000000000000000000000000000000000000000000000000000000000000000000000000000000000000000000000000000000000000000000000000000000000000000000000000000000000000000000000000000000000000000000000000000000000000000000000000000000000000000000000000000000000000000000000000000000000000000000000000000000000000000000000000000000000000000000000000000000000000000000000000000000000000000 a
1q
#380
0q
#385
b00000000000000000000000000010011 I
b00000000000000000000000000000000000000000000000000000000000000000000000000000000000000000000000000000000000000000000000000000000000000000000000000000000000000000000000000000000000000000000000000000000000000000000000000000000000000000000000000000000000000000000000000000000000000000000000000000000000000000000000000000000000000000000000000000000000000000000000000000000000000000000000000000000000000000000000000000000000000000000000000000000000000000000000000000000000000000000000000000000000000000000000000000000 M
0^
b0000000000000000 _
1q
#390
0q
#395
b00000000000000000000000000010100 I
1q
#400
0q
#405
b00000000000000000000000000010101 I
1q
#410
0q
#415
b00000000000000000000000000010110 I
1q
#420
0q
#425
b00000000000000000000000000010111 I
1q
#430
0q
#435
b00000000000000000000000000011000 I
1q
#440
0q
#445
b00000000000000000000000000011001 I
1q
#450
0q
#455
b00000000000000000000000000011010 I
1q
#460
0q
#465
b00000000000000000000000000011011 I
1q
#470
0q
#475
b00000000000000000000000000011100 I
1q
#480
0q
#485
b00000000000000000000000000011101 I
1q
#490
0q
#495
b00000000000000000000000000011110 I
1q
#500
0q
#505
b00000000000000000000000000011111 I
1q
#510
0q
#515
b00000000000000000000000000100000 I
1q
#520
0q
#525
b00000000000000000000000000100001 I
1q
#530
0q
#535
b00000000000000000000000000100010 I
1q
#540
0q
#545
b00000000000000000000000000100011 I
1q
#550
0q
#555
b00000000000000000000000000100100 I
1q
#560
0q
#565
b00000000000000000000000000100101 I
1q
#570
0q
#575
b00000000000000000000000000100110 I
1q
#580
0q
#585
b00000000000000000000000000100111 I
1q
#590
0q
#595
b00000000000000000000000000101000 I
1q
#600
0q
#605
b00000000000000000000000000101001 I
1q
#610
0q
#615
b00000000000000000000000000101010 I
1q
#620
0q
#625
b00000000000000000000000000101011 I
1q
#630
0q
#635
b00000000000000000000000000101100 I
1q
#640
0q
#645
b00000000000000000000000000101101 I
1q
#650
0q
#655
b00000000000000000000000000101110 I
1q
#660
0q
#665
b00000000000000000000000000101111 I
1q
#670
0q
#675
b00000000000000000000000000110000 I
1q
#680
0q
#685
b00000000000000000000000000110001 I
1q
#690
0q
#695
b00000000000000000000000000110010 I
1q
#700
0q
#705
b00000000000000000000000000110011 I
1q
#710
0q
#715
b00000000000000000000000000110100 I
1q
#720
0q
#725
b00000000000000000000000000110101 I
1q
#730
0q
#735
b00000000000000000000000000110110 I
1q
#740
0q
#745
b00000000000000000000000000110111 I
1q
#750
0q
#755
b00000000000000000000000000111000 I
1q
#760
0q
#765
b00000000000000000000000000111001 I
1q
#770
0q
#775
b00000000000000000000000000111010 I
1q
#780
0q
#785
b00000000000000000000000000111011 I
1q
#790
0q
#795
b00000000000000000000000000111100 I
1q
#800
0q
#805
b00000000000000000000000000111101 I
1q
#810
0q
#815
b00000000000000000000000000111110 I
1q
#820
0q
#825
b00000000000000000000000000111111 I
1q
#830
0q
#835
b00000000000000000000000001000000 I
1q
#840
0q
#845
b00000000000000000000000001000001 I
1q
#850
0q
#855
b00000000000000000000000001000010 I
1q
#860
0q
#865
b00000000000000000000000001000011 I
1q
#870
0q
#875
b00000000000000000000000001000100 I
1q
#880
0q
#885
b00000000000000000000000001000101 I
1q
#890
0q
#895
b00000000000000000000000001000110 I
1q
#900
0q
#905
b00000000000000000000000001000111 I
1q
#910
0q
#915
b00000000000000000000000001001000 I
1q
#920
0q
#925
b00000000000000000000000001001001 I
1q
#930
0q
#935
b00000000000000000000000001001010 I
1q
#940
0q
#945
b00000000000000000000000001001011 I
1q
#950
0q
#955
b00000000000000000000000001001100 I
1q
#960
0q
#965
b00000000000000000000000001001101 I
1q
#970
0q
#975
b00000000000000000000000001001110 I
1q
#980
0q
#985
b00000000000000000000000001001111 I
1q
#990
0q
#995
b00000000000000000000000001010000 I
1q
